phy_sinclk.v/banco_pruebas.vcd
$date
	Wed May 29 13:27:12 2019
$end
$version
	Icarus Verilog
$end
$timescale
	100ps
$end
$scope module banco_pruebas $end
$var wire 1 ! valid_out_c_1 $end
$var wire 1 " valid_out_c_0 $end
$var wire 1 # valid_in_1_c $end
$var wire 1 $ valid_in_0_c $end
$var wire 1 % reset $end
$var wire 8 & data_out_c_1 [7:0] $end
$var wire 8 ' data_out_c_0 [7:0] $end
$var wire 8 ( data_in_1_c [7:0] $end
$var wire 8 ) data_in_0_c [7:0] $end
$var wire 1 * clk_f $end
$var wire 1 + clk_8f $end
$var wire 1 , clk_2f $end
$scope module phy_cond_instance $end
$var wire 1 ! valid_out_c_1 $end
$var wire 1 " valid_out_c_0 $end
$var wire 1 # valid_in_1_c $end
$var wire 1 $ valid_in_0_c $end
$var wire 1 % reset $end
$var wire 8 - data_out_c_1 [7:0] $end
$var wire 8 . data_out_c_0 [7:0] $end
$var wire 8 / data_in_1_c [7:0] $end
$var wire 8 0 data_in_0_c [7:0] $end
$var wire 1 * clk_f $end
$var wire 1 + clk_8f $end
$var wire 1 , clk_2f $end
$var wire 1 1 Paral_serial_out_1_c $end
$var wire 1 2 Paral_serial_out_0_c $end
$scope module phy_rx_cond_ $end
$var wire 1 3 clk_nf $end
$var wire 1 4 reset0 $end
$var wire 1 5 valid_out_c_US $end
$var wire 1 6 valid_out_c_1_aux $end
$var wire 1 7 valid_out_c_0_aux $end
$var wire 1 8 valid_c_1_SP $end
$var wire 1 9 valid_c_0_SP $end
$var wire 1 % reset $end
$var wire 8 : lane_c_1 [7:0] $end
$var wire 8 ; lane_c_0 [7:0] $end
$var wire 8 < data_out_c_US [7:0] $end
$var wire 8 = data_out_c_1_aux [7:0] $end
$var wire 8 > data_out_c_0_aux [7:0] $end
$var wire 1 1 data_in_c_1 $end
$var wire 1 2 data_in_c_0 $end
$var wire 1 * clk_f $end
$var wire 1 + clk_8f $end
$var wire 1 , clk_2f $end
$var reg 8 ? data_out_c_0 [7:0] $end
$var reg 8 @ data_out_c_1 [7:0] $end
$var reg 1 A reset1 $end
$var reg 1 " valid_out_c_0 $end
$var reg 1 ! valid_out_c_1 $end
$scope module Byte_un_striping_instance0 $end
$var wire 1 8 valid_1 $end
$var wire 1 9 valid_0 $end
$var wire 1 % reset $end
$var wire 8 B lane_1 [7:0] $end
$var wire 8 C lane_0 [7:0] $end
$var wire 1 * clk_f $end
$var wire 1 , clk_2f $end
$var reg 8 D data_out_c [7:0] $end
$var reg 3 E estado [2:0] $end
$var reg 3 F prox_estado [2:0] $end
$var reg 1 5 valid_out_c $end
$upscope $end
$scope module Serie_Paralelo_instance0 $end
$var wire 1 4 reset $end
$var wire 1 2 data_in $end
$var wire 1 * clk_f $end
$var wire 1 + clk_8f $end
$var reg 3 G BC_counter [2:0] $end
$var reg 8 H Data_P [7:0] $end
$var reg 1 I active $end
$var reg 3 J bit_counter [2:0] $end
$var reg 8 K parallel_out_auxiliar [7:0] $end
$var reg 8 L parallel_out_c [7:0] $end
$var reg 1 9 valid_out_c $end
$var reg 1 M valid_out_c_retrasado $end
$var integer 32 N i [31:0] $end
$upscope $end
$scope module Serie_Paralelo_instance1 $end
$var wire 1 3 clk_f $end
$var wire 1 A reset $end
$var wire 1 1 data_in $end
$var wire 1 + clk_8f $end
$var reg 3 O BC_counter [2:0] $end
$var reg 8 P Data_P [7:0] $end
$var reg 1 Q active $end
$var reg 3 R bit_counter [2:0] $end
$var reg 8 S parallel_out_auxiliar [7:0] $end
$var reg 8 T parallel_out_c [7:0] $end
$var reg 1 8 valid_out_c $end
$var reg 1 U valid_out_c_retrasado $end
$var integer 32 V i [31:0] $end
$upscope $end
$scope module demux_cond_instance0 $end
$var wire 8 W data_in_c [7:0] $end
$var wire 1 5 valid_in_c $end
$var wire 1 % reset $end
$var wire 1 + clk8f $end
$var wire 1 , clk2f $end
$var reg 8 X data_out_0_c [7:0] $end
$var reg 8 Y data_out_1_c [7:0] $end
$var reg 6 Z nxt_st [5:0] $end
$var reg 1 [ reset2 $end
$var reg 1 \ resetm $end
$var reg 6 ] st [5:0] $end
$var reg 1 7 valid_out_0_c $end
$var reg 1 6 valid_out_1_c $end
$upscope $end
$upscope $end
$scope module phy_tx_cond_ $end
$var wire 1 ^ reset0 $end
$var wire 1 _ valid_mux $end
$var wire 1 # valid_in_1_c $end
$var wire 1 $ valid_in_0_c $end
$var wire 1 ` valid_1_c_BS $end
$var wire 1 a valid_0_c_BS $end
$var wire 1 % reset $end
$var wire 8 b lane_1_c [7:0] $end
$var wire 8 c lane_0_c [7:0] $end
$var wire 8 d data_out_c_mux [7:0] $end
$var wire 8 e data_in_1_c [7:0] $end
$var wire 8 f data_in_0_c [7:0] $end
$var wire 8 g data2send_c1 [7:0] $end
$var wire 8 h data2send_c0 [7:0] $end
$var wire 1 * clk_f $end
$var wire 1 + clk_8f $end
$var wire 1 , clk_2f $end
$var wire 1 1 Paral_serial_out_1_c $end
$var wire 1 2 Paral_serial_out_0_c $end
$var reg 8 i data_in_0_FF [7:0] $end
$var reg 8 j data_in_1_FF [7:0] $end
$var reg 1 k reset1 $end
$var reg 1 l valid_in_0_FF $end
$var reg 1 m valid_in_1_FF $end
$scope module Byte_striping_instance0 $end
$var wire 1 _ valid_in $end
$var wire 1 % reset $end
$var wire 8 n data_in [7:0] $end
$var wire 1 , clk_2f $end
$var reg 8 o lane_0_c [7:0] $end
$var reg 8 p lane_1_c [7:0] $end
$var reg 1 q selector $end
$var reg 1 a valid_0_c $end
$var reg 1 ` valid_1_c $end
$var reg 1 r valid_atrasado $end
$var reg 8 s y_0 [7:0] $end
$var reg 8 t y_1 [7:0] $end
$upscope $end
$scope module Paralelo_Serie_conductual_instance0 $end
$var wire 8 u data_in [7:0] $end
$var wire 1 ^ reset $end
$var wire 1 a valid_in $end
$var wire 1 * clk_f $end
$var wire 1 + clk_8f $end
$var reg 8 v data2send_c [7:0] $end
$var reg 1 2 data_out_c $end
$var reg 3 w j [2:0] $end
$var reg 3 x k [2:0] $end
$upscope $end
$scope module Paralelo_Serie_conductual_instance1 $end
$var wire 8 y data_in [7:0] $end
$var wire 1 k reset $end
$var wire 1 ` valid_in $end
$var wire 1 * clk_f $end
$var wire 1 + clk_8f $end
$var reg 8 z data2send_c [7:0] $end
$var reg 1 1 data_out_c $end
$var reg 3 { j [2:0] $end
$var reg 3 | k [2:0] $end
$upscope $end
$scope module mux_instance0 $end
$var wire 8 } data_in_0_c [7:0] $end
$var wire 8 ~ data_in_1_c [7:0] $end
$var wire 1 l valid_in_0_c $end
$var wire 1 m valid_in_1_c $end
$var wire 1 % reset $end
$var wire 1 + clk_8f $end
$var wire 1 , clk_2f $end
$var reg 8 !" data_out_c [7:0] $end
$var reg 6 "" nxt_st [5:0] $end
$var reg 1 #" reset2 $end
$var reg 1 $" resetm $end
$var reg 6 %" st [5:0] $end
$var reg 1 _ valid_out_c $end
$upscope $end
$upscope $end
$upscope $end
$scope module probador_inst $end
$var wire 8 &" data_out_c_0 [7:0] $end
$var wire 8 '" data_out_c_1 [7:0] $end
$var wire 1 " valid_out_c_0 $end
$var wire 1 ! valid_out_c_1 $end
$var reg 1 , clk_2f $end
$var reg 1 + clk_8f $end
$var reg 1 * clk_f $end
$var reg 8 (" data_in_0_c [7:0] $end
$var reg 8 )" data_in_1_c [7:0] $end
$var reg 1 % reset $end
$var reg 1 $ valid_in_0_c $end
$var reg 1 # valid_in_1_c $end
$upscope $end
$upscope $end
$enddefinitions $end
#0
$dumpvars
b0 )"
b0 ("
bx '"
bx &"
bx %"
0$"
x#"
bx ""
b0 !"
bx ~
bx }
b111 |
b111 {
b10111100 z
b0 y
b111 x
b111 w
b10111100 v
b0 u
bx t
bx s
xr
xq
b0 p
b0 o
b0 n
xm
xl
xk
bx j
bx i
b10111100 h
b10111100 g
b0 f
b0 e
b0 d
b0 c
b0 b
0a
0`
0_
0^
bx ]
0\
x[
b1 Z
b0 Y
b0 X
b0 W
bx V
1U
b0 T
bx S
bx R
xQ
bx P
bx O
bx N
xM
b0 L
bx K
b111 J
0I
b0 H
b0 G
b10 F
bx E
b0 D
b0 C
b0 B
xA
bx @
bx ?
b0 >
b0 =
b0 <
b0 ;
b0 :
09
08
07
06
05
04
13
02
11
b0 0
b0 /
bx .
bx -
0,
1+
0*
b0 )
b0 (
bx '
bx &
0%
0$
0#
x"
x!
$end
#20
0+
#40
0[
0#"
1+
#60
0+
#80
b0 K
0M
01
b1 ""
03
b1 %"
0r
b0 t
b0 s
0q
0k
0m
0l
b0 j
b0 ~
b0 i
b0 }
b10 E
b1 ]
0!
0"
b0 &
b0 -
b0 @
b0 '"
b0 '
b0 .
b0 ?
b0 &"
0A
1*
1+
1,
#100
0+
#120
0Q
b0 O
b0 P
b111 R
1+
#140
0+
#160
1+
0,
#180
0+
#200
1+
#220
0+
#240
b0 S
0U
13
0*
1+
1,
#260
0+
#280
1+
#300
0+
#320
1+
0,
#340
0+
#360
1+
#380
0+
#400
12
b0 N
b10 Z
b10 ""
03
1^
14
1%
1*
1+
1,
#420
0+
#440
b0 N
02
1\
b110 J
b10000000 H
b110 w
1$"
1+
#460
0+
#480
12
1#"
b101 w
b101 J
1[
1+
0,
#500
0+
#520
b0 N
b100 J
b10100000 H
b100 w
1+
#540
0+
#560
b0 N
13
b0 V
11
b11 w
b11 J
b10110000 H
0*
1A
b10 ]
1k
b10 %"
1+
1,
#580
0+
#600
b0 V
b0 N
01
b110 R
b10000000 P
b10 J
b10111000 H
b110 {
b10 w
1+
#620
0+
#640
02
11
b0 N
b1 w
b101 {
b1 J
b10111100 H
b101 R
1+
0,
#660
0+
#680
b0 V
b100 R
b10100000 P
b0 J
b100 {
b0 w
1+
#700
0+
#720
12
b0 V
03
b111 w
b11 {
b1 G
b111 J
b11 R
b10110000 P
1*
1+
1,
#740
0+
#760
b0 V
02
b10 R
b10111000 P
b110 J
b10 {
b110 w
1+
#780
0+
#800
12
01
b0 V
b101 w
b1 {
b101 J
b1 R
b10111100 P
1+
0,
#820
0+
#840
b0 R
b100 J
b0 {
b100 w
1+
#860
0+
#880
11
13
b11 w
b111 {
b11 J
b1 O
b111 R
b110010 (
b110010 /
b110010 e
b110010 )"
b10100100 )
b10100100 0
b10100100 f
b10100100 ("
0*
1+
1,
#900
0+
#920
01
b110 R
b10 J
b110 {
b10 w
1+
#940
0+
#960
02
11
b1 w
b101 {
b1 J
b101 R
1+
0,
#980
0+
#1000
b100 R
b0 J
b100 {
b0 w
1+
#1020
0+
#1040
12
03
b111 w
b11 {
b10 G
b111 J
b11 R
b110010 j
b110010 ~
b10100100 i
b10100100 }
1*
1+
1,
#1060
0+
#1080
02
b10 R
b110 J
b10 {
b110 w
1+
#1100
0+
#1120
12
01
b101 w
b1 {
b101 J
b1 R
1+
0,
#1140
0+
#1160
b0 R
b100 J
b0 {
b100 w
1+
#1180
0+
#1200
11
13
b11 w
b111 {
b11 J
b10 O
b111 R
0*
1+
1,
#1220
0+
#1240
01
b110 R
b10 J
b110 {
b10 w
1+
#1260
0+
#1280
02
11
b1 w
b101 {
b1 J
b101 R
1+
0,
#1300
0+
#1320
b100 R
b0 J
b100 {
b0 w
1+
#1340
0+
#1360
12
03
b111 w
b11 {
b11 G
b111 J
b11 R
1*
1+
1,
#1380
0+
#1400
02
b10 R
b110 J
b10 {
b110 w
1+
#1420
0+
#1440
12
01
b101 w
b1 {
b101 J
b1 R
1+
0,
#1460
0+
#1480
b0 R
b100 J
b0 {
b100 w
1+
#1500
0+
#1520
11
13
b11 w
b111 {
b11 J
b11 O
b111 R
b11111111 )
b11111111 0
b11111111 f
b11111111 ("
1$
0*
1+
1,
#1540
0+
#1560
01
b110 R
b10 J
b110 {
b10 w
1+
#1580
0+
#1600
02
11
b1 w
b101 {
b1 J
b101 R
1+
0,
#1620
0+
#1640
b100 R
b0 J
b100 {
b0 w
1+
#1660
0+
#1680
b11111111 h
b11111111 v
b0 N
b11111111 c
b11111111 o
b11111111 u
1a
12
1I
b100 ""
1_
b11111111 d
b11111111 n
b11111111 !"
03
b111 w
b11 {
b100 G
b111 J
b11 R
1l
b11111111 i
b11111111 }
b0 (
b0 /
b0 e
b0 )"
b11101110 )
b11101110 0
b11101110 f
b11101110 ("
1#
1*
1+
1,
#1700
0+
#1720
b10 R
b110 J
b10 {
b110 x
b110 w
1+
#1740
0+
#1760
01
b0 N
b101 w
b101 x
b1 {
b101 J
b11111100 H
b1 R
1+
0,
#1780
0+
#1800
b0 R
b100 J
b0 {
b100 x
b100 w
1+
#1820
0+
#1840
b0 V
b11101110 g
b11101110 z
11
1Q
13
b11101110 b
b11101110 p
b11101110 y
1`
1a
b11111111 c
b11111111 o
b11111111 u
1_
b11101110 d
b11101110 n
b11101110 !"
b11 w
b11 x
b111 {
b11 J
b100 O
b111 R
b1 (
b1 /
b1 e
b1 )"
b11011101 )
b11011101 0
b11011101 f
b11011101 ("
0*
1m
b0 j
b0 ~
b11101110 i
b11101110 }
1q
b11111111 s
1r
b100 %"
1+
1,
#1860
0+
#1880
b110 R
b10 J
b110 |
b110 {
b10 x
b10 w
1+
#1900
0+
#1920
b0 V
b1 w
b1 x
b101 {
b101 |
b1 J
b101 R
b11111100 P
1+
0,
#1940
0+
#1960
b0 N
01
b100 R
b0 J
b11111110 H
b100 |
b100 {
b0 x
b0 w
1+
#1980
0+
#2000
b100 Z
17
b11111111 >
b11111111 X
15
b11111111 <
b11111111 D
b11111111 W
b1 F
19
b11111111 K
1M
b11011101 h
b11011101 v
11
b11111111 ;
b11111111 C
b11111111 L
b0 N
b0 V
1`
1a
b11101110 b
b11101110 p
b11101110 y
b11011101 c
b11011101 o
b11011101 u
1_
b11011101 d
b11011101 n
b11011101 !"
03
b111 w
b111 x
b11 {
b11 |
b111 J
b11111111 H
b11 R
b11101100 P
b11101110 t
0q
b1 j
b1 ~
b11011101 i
b11011101 }
b10 (
b10 /
b10 e
b10 )"
b11001100 )
b11001100 0
b11001100 f
b11001100 ("
1*
1+
1,
#2020
0+
#2040
b10 R
b110 J
b10 |
b10 {
b110 x
b110 w
1+
#2060
0+
#2080
02
b101 w
b101 x
b1 {
b1 |
b101 J
b1 R
1+
0,
#2100
0+
#2120
b100 Z
17
b11111111 >
b11111111 X
15
b11111111 <
b11111111 D
b11111111 W
b1 F
b0 V
b0 N
19
b11111111 ;
b11111111 C
b11111111 L
01
12
b0 R
b11101110 P
b100 J
b11011111 H
b0 |
b0 {
b100 x
b100 w
1+
#2140
0+
#2160
18
b11101110 :
b11101110 B
b11101110 T
b0 V
b11101110 S
1U
b11001100 g
b11001100 z
11
13
b100 Z
17
b11101110 >
b11101110 X
b100 F
15
b11101110 <
b11101110 D
b11101110 W
1_
b11001100 d
b11001100 n
b11001100 !"
1`
1a
b11001100 b
b11001100 p
b11001100 y
b11011101 c
b11011101 o
b11011101 u
b11 w
b11 x
b111 {
b111 |
b11 J
b111 R
0#
0$
0*
1"
b11111111 '
b11111111 .
b11111111 ?
b11111111 &"
b100 ]
b1 E
b10 j
b10 ~
b11001100 i
b11001100 }
1q
b11011101 s
1+
1,
#2180
0+
#2200
b110 R
b10 J
b110 |
b110 {
b10 x
b10 w
1+
#2220
0+
#2240
02
01
b1 w
b1 x
b101 {
b101 |
b1 J
b101 R
1+
0,
#2260
0+
#2280
17
b11101110 >
b11101110 X
15
b11101110 <
b11101110 D
b11101110 W
b100 F
b0 V
18
b11101110 :
b11101110 B
b11101110 T
b0 N
19
b11111111 ;
b11111111 C
b11111111 L
12
b100 R
b11001110 P
b0 J
b11011101 H
b100 |
b100 {
b0 x
b0 w
1+
#2300
0+
#2320
b0 N
19
b11011101 ;
b11011101 C
b11011101 L
b11011101 K
b10111100 h
b10111100 v
17
b11011101 >
b11011101 X
11
1`
0a
b11001100 b
b11001100 p
b11001100 y
b11011101 c
b11011101 o
b11011101 u
b100000 ""
0_
b0 d
b0 n
b0 !"
b1 F
15
b11011101 <
b11011101 D
b11011101 W
03
b111 w
b111 x
b11 {
b11 |
b111 J
b11 R
b11001100 t
0q
0m
0l
b100 E
b11101110 '
b11101110 .
b11101110 ?
b11101110 &"
1*
1+
1,
#2340
0+
#2360
02
b10 R
b110 J
b10 |
b10 {
b110 w
1+
#2380
0+
#2400
17
b11011101 >
b11011101 X
15
b11011101 <
b11011101 D
b11011101 W
b1 F
12
01
b0 N
19
b11011101 ;
b11011101 C
b11011101 L
b101 w
b1 {
b1 |
b101 J
b10011101 H
b1 R
1+
0,
#2420
0+
#2440
17
b11011101 >
b11011101 X
15
b11011101 <
b11011101 D
b11011101 W
b1 F
b0 V
18
b11101110 :
b11101110 B
b11101110 T
b0 N
19
b11011101 ;
b11011101 C
b11011101 L
b0 R
b11001100 P
b100 J
b10111101 H
b0 |
b0 {
b100 w
1+
#2460
0+
#2480
b0 V
18
b11001100 :
b11001100 B
b11001100 T
b11001100 S
17
b11001100 >
b11001100 X
b10111100 g
b10111100 z
11
13
b100 F
15
b11001100 <
b11001100 D
b11001100 W
0`
b11001100 b
b11001100 p
b11001100 y
b11011101 c
b11011101 o
b11011101 u
b11 w
b111 {
b111 |
b11 J
b111 R
b11 (
b11 /
b11 e
b11 )"
0*
b11011101 '
b11011101 .
b11011101 ?
b11011101 &"
b1 E
0r
b100000 %"
1+
1,
#2500
0+
#2520
01
b110 R
b10 J
b110 {
b10 w
1+
#2540
0+
#2560
17
b11001100 >
b11001100 X
15
b11001100 <
b11001100 D
b11001100 W
b100 F
02
11
b0 V
18
b11001100 :
b11001100 B
b11001100 T
b1 w
b101 {
b1 J
b101 R
b10001100 P
1+
0,
#2580
0+
#2600
17
b11001100 >
b11001100 X
15
b11001100 <
b11001100 D
b11001100 W
b100 F
b0 V
18
b11001100 :
b11001100 B
b11001100 T
b100 R
b10101100 P
b0 J
b100 {
b0 w
1+
#2620
0+
#2640
b100000 Z
b0 K
0M
07
b0 >
b0 X
12
b0 N
09
b0 ;
b0 C
b0 L
b0 V
18
b11001100 :
b11001100 B
b11001100 T
b10 F
05
b0 <
b0 D
b0 W
03
b111 w
b11 {
b111 J
b10111100 H
b11 R
b10111100 P
b11 j
b11 ~
b100 E
b11001100 '
b11001100 .
b11001100 ?
b11001100 &"
b10111011 )
b10111011 0
b10111011 f
b10111011 ("
b100 (
b100 /
b100 e
b100 )"
1$
1*
1+
1,
#2660
0+
#2680
02
b10 R
b110 J
b10 {
b110 w
1+
#2700
0+
#2720
12
01
b101 w
b1 {
b101 J
b1 R
1+
0,
#2740
0+
#2760
b0 R
b100 J
b0 {
b100 w
1+
#2780
0+
#2800
b0 V
08
b0 :
b0 B
b0 T
b0 S
0U
b10111011 h
b10111011 v
1a
b11001100 b
b11001100 p
b11001100 y
b10111011 c
b10111011 o
b10111011 u
11
13
b100 ""
1_
b10111011 d
b10111011 n
b10111011 !"
b11 w
b111 {
b11 J
b111 R
0$
0*
0"
b0 '
b0 .
b0 ?
b0 &"
b100000 ]
b10 E
1l
b100 j
b100 ~
b10111011 i
b10111011 }
1+
1,
#2820
0+
#2840
01
02
b110 R
b10 J
b110 {
b110 x
b10 w
1+
#2860
0+
#2880
12
11
b0 N
b1 w
b101 x
b101 {
b1 J
b10111000 H
b101 R
1+
0,
#2900
0+
#2920
b0 N
b100 R
b0 J
b10111010 H
b100 {
b100 x
b0 w
1+
#2940
0+
#2960
b1000 Z
16
b10111011 =
b10111011 Y
15
b10111011 <
b10111011 D
b10111011 W
b1 F
19
b10111011 K
1M
b10111011 ;
b10111011 C
b10111011 L
b0 N
0`
1a
b11001100 b
b11001100 p
b11001100 y
b10111011 c
b10111011 o
b10111011 u
b100000 ""
0_
b0 d
b0 n
b0 !"
03
b111 w
b11 x
b11 {
b111 J
b10111011 H
b11 R
b100 %"
b10111011 s
1r
1q
0l
1*
1+
1,
#2980
0+
#3000
02
b10 R
b110 J
b10 {
b10 x
b110 w
1+
#3020
0+
#3040
12
01
b101 w
b1 x
b1 {
b101 J
b1 R
1+
0,
#3060
0+
#3080
b0 R
b100 J
b0 {
b0 x
b100 w
1+
#3100
0+
#3120
b10111100 h
b10111100 v
11
13
b10000 Z
06
b0 =
b0 Y
b10 F
05
b0 <
b0 D
b0 W
0a
b11001100 b
b11001100 p
b11001100 y
b10111011 c
b10111011 o
b10111011 u
b11 w
b111 x
b111 {
b11 J
b111 R
b10101010 )
b10101010 0
b10101010 f
b10101010 ("
b101 (
b101 /
b101 e
b101 )"
1#
1$
0*
1!
b10111011 &
b10111011 -
b10111011 @
b10111011 '"
b1000 ]
b1 E
0q
0r
b100000 %"
1+
1,
#3140
0+
#3160
01
b110 R
b10 J
b110 {
b10 w
1+
#3180
0+
#3200
b10000 Z
05
b10 F
02
11
b0 N
19
b10111011 ;
b10111011 C
b10111011 L
b1 w
b101 {
b1 J
b10111111 H
b101 R
1+
0,
#3220
0+
#3240
b10000 Z
05
b10 F
b0 N
19
b10111011 ;
b10111011 C
b10111011 L
b100 R
b0 J
b10111101 H
b100 {
b0 w
1+
#3260
0+
#3280
b0 K
0M
b101 h
b101 v
1a
b11001100 b
b11001100 p
b11001100 y
b101 c
b101 o
b101 u
b10000 Z
07
b0 >
b0 X
02
b0 N
09
b0 ;
b0 C
b0 L
b1000 ""
1_
b101 d
b101 n
b101 !"
05
b0 <
b0 D
b0 W
b10 F
03
b111 w
b11 {
b111 J
b10111100 H
b11 R
1m
1l
b101 j
b101 ~
b10101010 i
b10101010 }
b10 E
b10000 ]
0!
b0 &
b0 -
b0 @
b0 '"
b10011001 )
b10011001 0
b10011001 f
b10011001 ("
b110 (
b110 /
b110 e
b110 )"
1*
1+
1,
#3300
0+
#3320
b0 N
b10 R
b110 J
b111100 H
b10 {
b110 x
b110 w
1+
#3340
0+
#3360
01
b101 w
b101 x
b1 {
b101 J
b1 R
1+
0,
#3380
0+
#3400
b0 N
b0 R
b100 J
b11100 H
b0 {
b100 x
b100 w
1+
#3420
0+
#3440
b110 g
b110 z
01
b0 N
13
1`
1a
b110 b
b110 p
b110 y
b101 c
b101 o
b101 u
1_
b110 d
b110 n
b110 !"
b11 w
b11 x
b111 {
b11 J
b1100 H
b111 R
0#
0$
0*
b110 j
b110 ~
b10011001 i
b10011001 }
1q
b101 s
1r
b1000 %"
1+
1,
#3460
0+
#3480
b0 V
b0 N
12
b110 R
b111100 P
b10 J
b100 H
b110 |
b110 {
b10 x
b10 w
1+
#3500
0+
#3520
02
b1 w
b1 x
b101 {
b101 |
b1 J
b101 R
1+
0,
#3540
0+
#3560
b0 V
12
b100 R
b11100 P
b0 J
b100 |
b100 {
b0 x
b0 w
1+
#3580
0+
#3600
b100 Z
17
b101 >
b101 X
15
b101 <
b101 D
b101 W
b1 F
19
b101 K
1M
b10111100 h
b10111100 v
12
b101 ;
b101 C
b101 L
b0 N
b0 V
1`
0a
b110 b
b110 p
b110 y
b101 c
b101 o
b101 u
b10000 ""
0_
b0 d
b0 n
b0 !"
03
b111 w
b111 x
b11 {
b11 |
b111 J
b101 H
b11 R
b1100 P
b110 t
0q
0m
0l
1*
1+
1,
#3620
0+
#3640
b100 Z
17
b101 >
b101 X
15
b101 <
b101 D
b101 W
b1 F
b0 V
b0 N
19
b101 ;
b101 C
b101 L
11
02
b10 R
b100 P
b110 J
b10000101 H
b10 |
b10 {
b110 w
1+
#3660
0+
#3680
12
b101 w
b1 {
b1 |
b101 J
b1 R
1+
0,
#3700
0+
#3720
b100 Z
17
b101 >
b101 X
15
b101 <
b101 D
b101 W
b1 F
b0 V
b0 N
19
b101 ;
b101 C
b101 L
01
b0 R
b110 P
b100 J
b10100101 H
b0 |
b0 {
b100 w
1+
#3740
0+
#3760
18
b110 :
b110 B
b110 T
b0 V
b110 S
1U
11
b10111100 g
b10111100 z
b0 N
19
b101 ;
b101 C
b101 L
13
b100 Z
17
b110 >
b110 X
b100 F
15
b110 <
b110 D
b110 W
0`
b110 b
b110 p
b110 y
b101 c
b101 o
b101 u
b11 w
b111 {
b111 |
b11 J
b10110101 H
b111 R
b10001000 )
b10001000 0
b10001000 f
b10001000 ("
b111 (
b111 /
b111 e
b111 )"
1#
1$
0*
1"
b101 '
b101 .
b101 ?
b101 &"
b100 ]
b1 E
0r
b10000 %"
1+
1,
#3780
0+
#3800
17
b110 >
b110 X
15
b110 <
b110 D
b110 W
b100 F
b0 V
18
b110 :
b110 B
b110 T
b0 N
19
b101 ;
b101 C
b101 L
01
b110 R
b10000110 P
b10 J
b10111101 H
b110 {
b10 w
1+
#3820
0+
#3840
02
11
b1 w
b101 {
b1 J
b101 R
1+
0,
#3860
0+
#3880
17
b110 >
b110 X
15
b110 <
b110 D
b110 W
b100 F
b0 V
18
b110 :
b110 B
b110 T
b100 R
b10100110 P
b0 J
b100 {
b0 w
1+
#3900
0+
#3920
b100000 Z
b0 K
0M
b10001000 h
b10001000 v
1a
b110 b
b110 p
b110 y
b10001000 c
b10001000 o
b10001000 u
07
b0 >
b0 X
12
b0 N
09
b0 ;
b0 C
b0 L
b0 V
18
b110 :
b110 B
b110 T
b100 ""
1_
b10001000 d
b10001000 n
b10001000 !"
b10 F
05
b0 <
b0 D
b0 W
03
b111 w
b11 {
b111 J
b10111100 H
b11 R
b10110110 P
1m
1l
b111 j
b111 ~
b10001000 i
b10001000 }
b100 E
b110 '
b110 .
b110 ?
b110 &"
b1110111 )
b1110111 0
b1110111 f
b1110111 ("
b1000 (
b1000 /
b1000 e
b1000 )"
1*
1+
1,
#3940
0+
#3960
b100000 Z
05
b10 F
b0 V
18
b110 :
b110 B
b110 T
02
b10 R
b10111110 P
b110 J
b10 {
b110 x
b110 w
1+
#3980
0+
#4000
01
b101 w
b101 x
b1 {
b101 J
b1 R
1+
0,
#4020
0+
#4040
b100000 Z
05
b10 F
b0 V
18
b110 :
b110 B
b110 T
b0 N
b0 R
b10111100 P
b100 J
b10011100 H
b0 {
b100 x
b100 w
1+
#4060
0+
#4080
b0 V
08
b0 :
b0 B
b0 T
b0 S
0U
b1110111 g
b1110111 z
12
01
b0 N
13
1`
1a
b1110111 b
b1110111 p
b1110111 y
b10001000 c
b10001000 o
b10001000 u
1_
b1110111 d
b1110111 n
b1110111 !"
b11 w
b11 x
b111 {
b11 J
b10001100 H
b111 R
b110010 )
b110010 0
b110010 f
b110010 ("
b10110 (
b10110 /
b10110 e
b10110 )"
0*
0"
b0 '
b0 .
b0 ?
b0 &"
b100000 ]
b10 E
b1000 j
b1000 ~
b1110111 i
b1110111 }
1q
b10001000 s
1r
b100 %"
1+
1,
#4100
0+
#4120
b0 V
11
02
b110 R
b111100 P
b10 J
b110 |
b110 {
b10 x
b10 w
1+
#4140
0+
#4160
b0 N
b0 V
b1 w
b1 x
b101 {
b101 |
b1 J
b10001000 H
b101 R
b1111100 P
1+
0,
#4180
0+
#4200
b100 R
b0 J
b100 |
b100 {
b0 x
b0 w
1+
#4220
0+
#4240
b1000 Z
16
b10001000 =
b10001000 Y
15
b10001000 <
b10001000 D
b10001000 W
b1 F
19
b10001000 ;
b10001000 C
b10001000 L
b0 N
b10001000 K
1M
b110010 h
b110010 v
02
01
1`
1a
b1110111 b
b1110111 p
b1110111 y
b110010 c
b110010 o
b110010 u
1_
b110010 d
b110010 n
b110010 !"
03
b111 w
b111 x
b11 {
b11 |
b111 J
b11 R
b1110111 t
0q
b10110 j
b10110 ~
b110010 i
b110010 }
0#
0$
1*
1+
1,
#4260
0+
#4280
b1000 Z
16
b10001000 =
b10001000 Y
15
b10001000 <
b10001000 D
b10001000 W
b1 F
b0 V
b0 N
19
b10001000 ;
b10001000 C
b10001000 L
11
b10 R
b1110100 P
b110 J
b1000 H
b10 |
b10 {
b110 x
b110 w
1+
#4300
0+
#4320
12
b101 w
b101 x
b1 {
b1 |
b101 J
b1 R
1+
0,
#4340
0+
#4360
b1000 Z
16
b10001000 =
b10001000 Y
15
b10001000 <
b10001000 D
b10001000 W
b1 F
b0 V
b0 N
19
b10001000 ;
b10001000 C
b10001000 L
b0 R
b1110110 P
b100 J
b101000 H
b0 |
b0 {
b100 x
b100 w
1+
#4380
0+
#4400
18
b1110111 S
1U
b10111100 g
b10111100 z
02
11
b0 N
19
b10001000 ;
b10001000 C
b10001000 L
b1110111 :
b1110111 B
b1110111 T
b0 V
13
b1000 Z
16
b1110111 =
b1110111 Y
b100 F
15
b1110111 <
b1110111 D
b1110111 W
b100000 ""
0_
b0 d
b0 n
b0 !"
0`
1a
b1110111 b
b1110111 p
b1110111 y
b110010 c
b110010 o
b110010 u
b11 w
b11 x
b111 {
b111 |
b11 J
b111000 H
b111 R
b1110111 P
0*
1!
b10001000 &
b10001000 -
b10001000 @
b10001000 '"
b1000 ]
b1 E
0m
0l
1q
b110010 s
1+
1,
#4420
0+
#4440
16
b1110111 =
b1110111 Y
15
b1110111 <
b1110111 D
b1110111 W
b100 F
b0 V
18
b1110111 :
b1110111 B
b1110111 T
b0 N
19
b10001000 ;
b10001000 C
b10001000 L
01
b110 R
b11110111 P
b10 J
b110000 H
b110 {
b10 x
b10 w
1+
#4460
0+
#4480
16
b1110111 =
b1110111 Y
15
b1110111 <
b1110111 D
b1110111 W
b100 F
12
11
b0 V
18
b1110111 :
b1110111 B
b1110111 T
b1 w
b1 x
b101 {
b1 J
b101 R
b10110111 P
1+
0,
#4500
0+
#4520
16
b1110111 =
b1110111 Y
15
b1110111 <
b1110111 D
b1110111 W
b100 F
b0 N
19
b10001000 ;
b10001000 C
b10001000 L
02
b100 R
b0 J
b110010 H
b100 {
b0 x
b0 w
1+
#4540
0+
