LuisSotoP1/Mux/proy1.vcd
$date
	Wed May 15 12:09:24 2019
$end
$version
	Icarus Verilog
$end
$timescale
	100ps
$end
$scope module BUF $end
$var wire 1 ! A $end
$var wire 1 " Y $end
$upscope $end
$scope module BancoPruebas $end
$var wire 1 # clk2f_c $end
$var wire 1 $ clk2f_s $end
$var wire 1 % clkf_s $end
$var wire 8 & data_out_s [7:0] $end
$var wire 1 ' valid_out_s $end
$var wire 1 ( valid_out_c $end
$var wire 1 ) valid_in_1 $end
$var wire 1 * valid_in_0 $end
$var wire 1 + reset $end
$var wire 8 , data_out_c [7:0] $end
$var wire 8 - data_in_1 [7:0] $end
$var wire 8 . data_in_0 [7:0] $end
$var wire 1 / clkf_c $end
$var wire 1 0 clk8f $end
$var wire 1 1 clk4f_s $end
$var wire 1 2 clk4f_c $end
$scope module p_cond $end
$var wire 1 # clk2f_c $end
$var wire 1 ( valid_out_c $end
$var wire 1 ) valid_in_1 $end
$var wire 1 * valid_in_0 $end
$var wire 1 + reset $end
$var wire 8 3 data_out_c [7:0] $end
$var wire 8 4 data_in_1 [7:0] $end
$var wire 8 5 data_in_0 [7:0] $end
$var wire 1 / clkf_c $end
$var wire 1 0 clk8f $end
$var wire 1 2 clk4f_c $end
$var wire 1 6 clk2f_mid $end
$scope module generador_de_relojes $end
$var wire 1 + reset $end
$var wire 1 0 clk8f $end
$var reg 1 6 clk2f $end
$var reg 1 2 clk4f $end
$var reg 1 / clkf $end
$upscope $end
$scope module mux_ $end
$var wire 1 6 clk2f $end
$var wire 1 ) valid_in_1_c $end
$var wire 1 * valid_in_0_c $end
$var wire 1 + reset $end
$var wire 8 7 data_in_1_c [7:0] $end
$var wire 8 8 data_in_0_c [7:0] $end
$var wire 1 0 clk8f $end
$var reg 8 9 data_out_c [7:0] $end
$var reg 6 : nxt_st [5:0] $end
$var reg 6 ; st [5:0] $end
$var reg 1 ( valid_out_c $end
$upscope $end
$upscope $end
$scope module p_synth $end
$var wire 1 < clk2f_mid $end
$var wire 1 $ clk2f_s $end
$var wire 1 % clkf_s $end
$var wire 8 = data_out_s [7:0] $end
$var wire 1 ' valid_out_s $end
$var wire 1 ) valid_in_1 $end
$var wire 1 * valid_in_0 $end
$var wire 1 + reset $end
$var wire 8 > data_in_1 [7:0] $end
$var wire 8 ? data_in_0 [7:0] $end
$var wire 1 0 clk8f $end
$var wire 1 1 clk4f_s $end
$scope module generador_de_relojes $end
$var wire 1 < clk2f $end
$var wire 1 % clkf $end
$var wire 1 + reset $end
$var wire 1 0 clk8f $end
$var wire 1 1 clk4f $end
$var wire 1 @ _1_ $end
$var wire 1 A _0_ $end
$scope module _2_ $end
$var wire 1 @ Y $end
$var wire 1 + A $end
$upscope $end
$scope module _3_ $end
$var wire 1 @ A $end
$var wire 1 A Y $end
$var wire 1 1 B $end
$upscope $end
$scope module _4_ $end
$var wire 1 A D $end
$var wire 1 0 C $end
$var reg 1 1 Q $end
$upscope $end
$upscope $end
$scope module mux_ $end
$var wire 1 < clk2f $end
$var wire 8 B data_out_s [7:0] $end
$var wire 1 ' valid_out_s $end
$var wire 1 ) valid_in_1_c $end
$var wire 1 * valid_in_0_c $end
$var wire 1 + reset $end
$var wire 8 C data_in_1_c [7:0] $end
$var wire 8 D data_in_0_c [7:0] $end
$var wire 1 0 clk8f $end
$upscope $end
$upscope $end
$scope module probador_ $end
$var wire 1 # clk2f_c $end
$var wire 1 $ clk2f_s $end
$var wire 1 2 clk4f_c $end
$var wire 1 1 clk4f_s $end
$var wire 1 / clkf_c $end
$var wire 1 % clkf_s $end
$var wire 8 E data_out_c [7:0] $end
$var wire 8 F data_out_s [7:0] $end
$var wire 1 ( valid_out_c $end
$var wire 1 ' valid_out_s $end
$var reg 1 0 clk8f $end
$var reg 8 G data_in_0 [7:0] $end
$var reg 8 H data_in_1 [7:0] $end
$var reg 1 + reset $end
$var reg 1 * valid_in_0 $end
$var reg 1 ) valid_in_1 $end
$upscope $end
$upscope $end
$scope module DFFSR $end
$var wire 1 I C $end
$var wire 1 J D $end
$var wire 1 K R $end
$var wire 1 L S $end
$var reg 1 M Q $end
$upscope $end
$scope module NAND $end
$var wire 1 N A $end
$var wire 1 O B $end
$var wire 1 P Y $end
$upscope $end
$enddefinitions $end
#0
$dumpvars
xP
zO
zN
xM
zL
zK
zJ
zI
b0 H
b0 G
b0 F
b0 E
b0 D
b0 C
b0 B
0A
1@
b0 ?
b0 >
b0 =
0<
b1 ;
b1 :
b0 9
b0 8
b0 7
x6
b0 5
b0 4
b0 3
x2
x1
00
x/
b0 .
b0 -
b0 ,
0+
0*
0)
0(
0'
b0 &
0%
z$
z#
z"
z!
$end
#450
0/
06
02
01
b11111111 -
b11111111 4
b11111111 7
b11111111 >
b11111111 C
b11111111 H
b10001 .
b10001 5
b10001 8
b10001 ?
b10001 D
b10001 G
10
#900
00
#1350
10
#1800
00
#2250
10
#2700
00
#3150
1A
0@
b10 :
1+
10
#3600
00
#4050
1/
b10 ;
16
0A
b10 :
12
11
b11111110 -
b11111110 4
b11111110 7
b11111110 >
b11111110 C
b11111110 H
b10010 .
b10010 5
b10010 8
b10010 ?
b10010 D
b10010 G
10
#4500
00
#4950
1A
01
02
10
#5400
00
#5850
06
0A
12
11
10
#6300
00
#6750
1A
01
02
10
#7200
00
#7650
0/
16
0A
12
11
10
#8100
00
#8550
1A
01
02
10
#9000
00
#9450
06
0A
12
11
10
#9900
00
#10350
1A
01
02
10
#10800
00
#11250
1/
b100 ;
16
0A
b100 :
1(
b10011 ,
b10011 3
b10011 9
b10011 E
12
11
1*
b11111101 -
b11111101 4
b11111101 7
b11111101 >
b11111101 C
b11111101 H
b10011 .
b10011 5
b10011 8
b10011 ?
b10011 D
b10011 G
10
#11700
00
#12150
1A
01
02
10
#12600
00
#13050
06
0A
12
11
10
#13500
00
#13950
1A
01
02
10
#14400
00
#14850
0/
16
0A
12
11
10
#15300
00
#15750
1A
01
02
10
#16200
00
#16650
06
0A
12
11
10
#17100
00
#17550
1A
01
02
10
#18000
00
#18450
1/
16
0A
1(
b10100 ,
b10100 3
b10100 9
b10100 E
12
11
b11111100 -
b11111100 4
b11111100 7
b11111100 >
b11111100 C
b11111100 H
b10100 .
b10100 5
b10100 8
b10100 ?
b10100 D
b10100 G
10
#18900
00
#19350
1A
01
02
10
#19800
00
#20250
06
0A
12
11
10
#20700
00
#21150
1A
01
02
10
#21600
00
#22050
0/
16
0A
12
11
10
#22500
00
#22950
1A
01
02
10
#23400
00
#23850
06
0A
12
11
10
#24300
00
#24750
1A
01
02
10
#25200
00
#25650
1/
b100000 ;
16
0A
b100000 :
0(
b0 ,
b0 3
b0 9
b0 E
12
11
0*
b11111011 -
b11111011 4
b11111011 7
b11111011 >
b11111011 C
b11111011 H
b10101 .
b10101 5
b10101 8
b10101 ?
b10101 D
b10101 G
10
#26100
00
#26550
1A
01
02
10
#27000
00
#27450
06
0A
12
11
10
#27900
00
#28350
1A
01
02
10
#28800
00
#29250
0/
16
0A
12
11
10
#29700
00
#30150
1A
01
02
10
#30600
00
#31050
06
0A
12
11
10
#31500
00
#31950
1A
01
02
10
#32400
00
#32850
1/
16
0A
12
11
b11111010 -
b11111010 4
b11111010 7
b11111010 >
b11111010 C
b11111010 H
b10110 .
b10110 5
b10110 8
b10110 ?
b10110 D
b10110 G
10
#33300
00
#33750
1A
01
02
10
#34200
00
#34650
06
0A
12
11
10
#35100
00
#35550
1A
01
02
10
#36000
00
#36450
0/
16
0A
12
11
10
#36900
00
#37350
1A
01
02
10
#37800
00
#38250
06
0A
12
11
10
#38700
00
#39150
1A
01
02
10
#39600
00
#40050
1/
b1000 ;
16
0A
b1000 :
1(
b11111001 ,
b11111001 3
b11111001 9
b11111001 E
12
11
1)
b11111001 -
b11111001 4
b11111001 7
b11111001 >
b11111001 C
b11111001 H
b10111 .
b10111 5
b10111 8
b10111 ?
b10111 D
b10111 G
10
#40500
00
#40950
1A
01
02
10
#41400
00
#41850
06
0A
12
11
10
#42300
00
#42750
1A
01
02
10
#43200
00
#43650
0/
16
0A
12
11
10
#44100
00
#44550
1A
01
02
10
#45000
00
#45450
06
0A
12
11
10
#45900
00
#46350
1A
01
02
10
#46800
00
#47250
1/
16
0A
1(
b11111000 ,
b11111000 3
b11111000 9
b11111000 E
12
11
b11111000 -
b11111000 4
b11111000 7
b11111000 >
b11111000 C
b11111000 H
b11000 .
b11000 5
b11000 8
b11000 ?
b11000 D
b11000 G
10
#47700
00
#48150
1A
01
02
10
#48600
00
#49050
06
0A
12
11
10
#49500
00
#49950
1A
01
02
10
#50400
00
#50850
0/
16
0A
12
11
10
#51300
00
#51750
1A
01
02
10
#52200
00
#52650
06
0A
12
11
10
#53100
00
#53550
1A
01
02
10
#54000
00
#54450
1/
b10000 ;
16
0A
b10000 :
0(
b0 ,
b0 3
b0 9
b0 E
12
11
0)
b11110111 -
b11110111 4
b11110111 7
b11110111 >
b11110111 C
b11110111 H
b11001 .
b11001 5
b11001 8
b11001 ?
b11001 D
b11001 G
10
#54900
00
#55350
1A
01
02
10
#55800
00
#56250
06
0A
12
11
10
#56700
00
#57150
1A
01
02
10
#57600
00
#58050
0/
16
0A
12
11
10
#58500
00
#58950
1A
01
02
10
#59400
00
#59850
06
0A
12
11
10
#60300
00
#60750
1A
01
02
10
#61200
00
#61650
1/
16
0A
12
11
b11110110 -
b11110110 4
b11110110 7
b11110110 >
b11110110 C
b11110110 H
b11010 .
b11010 5
b11010 8
b11010 ?
b11010 D
b11010 G
10
#62100
00
#62550
1A
01
02
10
#63000
00
#63450
06
0A
12
11
10
#63900
00
#64350
1A
01
02
10
#64800
00
#65250
0/
16
0A
12
11
10
#65700
00
#66150
1A
01
02
10
#66600
00
#67050
06
0A
12
11
10
#67500
00
#67950
1A
01
02
10
#68400
00
#68850
1/
b100 ;
16
0A
b100 :
1(
b11011 ,
b11011 3
b11011 9
b11011 E
12
11
1)
1*
b11110101 -
b11110101 4
b11110101 7
b11110101 >
b11110101 C
b11110101 H
b11011 .
b11011 5
b11011 8
b11011 ?
b11011 D
b11011 G
10
#69300
00
#69750
1A
01
02
10
#70200
00
#70650
06
0A
12
11
10
#71100
00
#71550
1A
01
02
10
#72000
00
#72450
0/
16
0A
12
11
10
#72900
00
#73350
1A
01
02
10
#73800
00
#74250
06
0A
12
11
10
#74700
00
#75150
1A
01
02
10
#75600
00
#76050
1/
16
0A
1(
b11100 ,
b11100 3
b11100 9
b11100 E
12
11
0)
b11110100 -
b11110100 4
b11110100 7
b11110100 >
b11110100 C
b11110100 H
b11100 .
b11100 5
b11100 8
b11100 ?
b11100 D
b11100 G
10
#76500
00
#76950
1A
01
02
10
#77400
00
#77850
06
0A
12
11
10
#78300
00
#78750
1A
01
02
10
#79200
00
#79650
0/
16
0A
12
11
10
#80100
00
#80550
1A
01
02
10
#81000
00
#81450
06
0A
12
11
10
#81900
00
#82350
1A
01
02
10
#82800
00
#83250
1/
b100000 ;
16
0A
b100000 :
0(
b0 ,
b0 3
b0 9
b0 E
12
11
0*
b11110011 -
b11110011 4
b11110011 7
b11110011 >
b11110011 C
b11110011 H
b11101 .
b11101 5
b11101 8
b11101 ?
b11101 D
b11101 G
10
#83700
00
#84150
1A
01
02
10
#84600
00
#85050
06
0A
12
11
10
#85500
00
#85950
1A
01
02
10
#86400
00
#86850
0/
16
0A
12
11
10
#87300
00
#87750
1A
01
02
10
#88200
00
#88650
06
0A
12
11
10
#89100
00
#89550
1A
01
02
10
#90000
00
#90450
1/
16
0A
12
11
b11110010 -
b11110010 4
b11110010 7
b11110010 >
b11110010 C
b11110010 H
b11110 .
b11110 5
b11110 8
b11110 ?
b11110 D
b11110 G
10
#90900
00
#91350
1A
01
02
10
#91800
00
#92250
06
0A
12
11
10
#92700
00
#93150
1A
01
02
10
#93600
00
#94050
0/
16
0A
12
11
10
#94500
00
#94950
1A
01
02
10
#95400
00
#95850
06
0A
12
11
10
#96300
00
#96750
1A
01
02
10
#97200
00
#97650
1/
b1000 ;
16
0A
b1000 :
1(
b11110001 ,
b11110001 3
b11110001 9
b11110001 E
12
11
1)
1*
b11110001 -
b11110001 4
b11110001 7
b11110001 >
b11110001 C
b11110001 H
b11111 .
b11111 5
b11111 8
b11111 ?
b11111 D
b11111 G
10
#98100
00
#98550
1A
01
02
10
#99000
00
#99450
06
0A
12
11
10
#99900
00
#100350
1A
01
02
10
#100800
00
#101250
0/
16
0A
12
11
10
#101700
00
#102150
1A
01
02
10
#102600
00
#103050
06
0A
12
11
10
#103500
00
#103950
1A
01
02
10
#104400
00
#104850
1/
16
0A
0(
b0 ,
b0 3
b0 9
b0 E
12
11
0)
b11110000 -
b11110000 4
b11110000 7
b11110000 >
b11110000 C
b11110000 H
b100000 .
b100000 5
b100000 8
b100000 ?
b100000 D
b100000 G
10
#105300
00
#105750
1A
01
02
10
#106200
00
#106650
06
0A
12
11
10
#107100
00
#107550
1A
01
02
10
#108000
00
#108450
0/
16
0A
12
11
10
#108900
00
#109350
1A
01
02
10
#109800
00
#110250
06
0A
12
11
10
#110700
00
#111150
1A
01
02
10
#111600
00
#112050
1/
b10000 ;
16
0A
b10000 :
12
11
0*
b11101111 -
b11101111 4
b11101111 7
b11101111 >
b11101111 C
b11101111 H
b100001 .
b100001 5
b100001 8
b100001 ?
b100001 D
b100001 G
10
#112500
00
#112950
1A
01
02
10
#113400
00
#113850
06
0A
12
11
10
#114300
00
#114750
1A
01
02
10
#115200
00
#115650
0/
16
0A
12
11
10
#116100
00
#116550
1A
01
02
10
#117000
00
#117450
06
0A
12
11
10
#117900
00
#118350
1A
01
02
10
#118800
00
#119250
1/
16
0A
12
11
b11101110 -
b11101110 4
b11101110 7
b11101110 >
b11101110 C
b11101110 H
b100010 .
b100010 5
b100010 8
b100010 ?
b100010 D
b100010 G
10
#119700
00
#120150
1A
01
02
10
#120600
00
#121050
06
0A
12
11
10
#121500
00
#121950
1A
01
02
10
#122400
00
#122850
0/
16
0A
12
11
10
#123300
00
#123750
1A
01
02
10
#124200
00
#124650
06
0A
12
11
10
#125100
00
#125550
1A
01
02
10
#126000
00
#126450
1/
b100 ;
16
0A
b100 :
1(
b100011 ,
b100011 3
b100011 9
b100011 E
12
11
1)
1*
b11101101 -
b11101101 4
b11101101 7
b11101101 >
b11101101 C
b11101101 H
b100011 .
b100011 5
b100011 8
b100011 ?
b100011 D
b100011 G
10
#126900
00
#127350
1A
01
02
10
#127800
00
#128250
06
0A
12
11
10
#128700
00
#129150
1A
01
02
10
#129600
00
#130050
0/
16
0A
12
11
10
#130500
00
#130950
1A
01
02
10
#131400
00
#131850
06
0A
12
11
10
#132300
00
#132750
1A
01
02
10
#133200
00
#133650
1/
16
0A
0(
b0 ,
b0 3
b0 9
b0 E
12
11
0*
b11101100 -
b11101100 4
b11101100 7
b11101100 >
b11101100 C
b11101100 H
b100100 .
b100100 5
b100100 8
b100100 ?
b100100 D
b100100 G
10
#134100
00
#134550
1A
01
02
10
#135000
00
#135450
06
0A
12
11
10
#135900
00
#136350
1A
01
02
10
#136800
00
#137250
0/
16
0A
12
11
10
#137700
00
#138150
1A
01
02
10
#138600
00
#139050
06
0A
12
11
10
#139500
00
#139950
1A
01
02
10
#140400
00
#140850
1/
b100000 ;
16
0A
b100000 :
12
11
0)
b11101011 -
b11101011 4
b11101011 7
b11101011 >
b11101011 C
b11101011 H
b100101 .
b100101 5
b100101 8
b100101 ?
b100101 D
b100101 G
10
#141300
00
#141750
1A
01
02
10
#142200
00
#142650
06
0A
12
11
10
#143100
00
#143550
1A
01
02
10
#144000
00
#144450
0/
16
0A
12
11
10
#144900
00
#145350
1A
01
02
10
#145800
00
#146250
06
0A
12
11
10
#146700
00
#147150
1A
01
02
10
#147600
00
#148050
1/
16
0A
12
11
b11101010 -
b11101010 4
b11101010 7
b11101010 >
b11101010 C
b11101010 H
b100110 .
b100110 5
b100110 8
b100110 ?
b100110 D
b100110 G
10
#148500
00
#148950
1A
01
02
10
#149400
00
#149850
06
0A
12
11
10
#150300
00
#150750
1A
01
02
10
#151200
00
#151650
0/
16
0A
12
11
10
#152100
00
#152550
1A
01
02
10
#153000
00
#153450
06
0A
12
11
10
#153900
00
#154350
1A
01
02
10
