Paralelo_Serie/P_S.vcd
$date
	Mon May 20 18:06:18 2019
$end
$version
	Icarus Verilog
$end
$timescale
	100ps
$end
$scope module BUF $end
$var wire 1 ! A $end
$var wire 1 " Y $end
$upscope $end
$scope module BancoPruebas $end
$var wire 1 # valid_in $end
$var wire 1 $ reset $end
$var wire 1 % data_out_e $end
$var wire 1 & data_out_c $end
$var wire 8 ' data_in [7:0] $end
$var wire 8 ( data2send_e [7:0] $end
$var wire 8 ) data2send_c [7:0] $end
$var wire 1 * clk_f $end
$var wire 1 + clk_8f $end
$scope module P_S_Cond $end
$var wire 1 # valid_in $end
$var wire 1 $ reset $end
$var wire 8 , data_in [7:0] $end
$var wire 1 * clk_f $end
$var wire 1 + clk_8f $end
$var reg 8 - data2send_c [7:0] $end
$var reg 1 & data_out_c $end
$var reg 3 . j [2:0] $end
$upscope $end
$scope module P_S_synth $end
$var wire 1 # valid_in $end
$var wire 1 $ reset $end
$var wire 3 / j [2:0] $end
$var wire 1 % data_out_e $end
$var wire 8 0 data_in [7:0] $end
$var wire 8 1 data2send_e [7:0] $end
$var wire 1 * clk_f $end
$var wire 1 + clk_8f $end
$var wire 1 2 _41_ $end
$var wire 1 3 _40_ $end
$var wire 1 4 _39_ $end
$var wire 1 5 _38_ $end
$var wire 1 6 _37_ $end
$var wire 1 7 _36_ $end
$var wire 1 8 _35_ $end
$var wire 1 9 _34_ $end
$var wire 1 : _33_ $end
$var wire 1 ; _32_ $end
$var wire 1 < _31_ $end
$var wire 1 = _30_ $end
$var wire 1 > _29_ $end
$var wire 1 ? _28_ $end
$var wire 1 @ _27_ $end
$var wire 1 A _26_ $end
$var wire 1 B _25_ $end
$var wire 1 C _24_ $end
$var wire 1 D _23_ $end
$var wire 1 E _22_ $end
$var wire 1 F _21_ $end
$var wire 1 G _20_ $end
$var wire 1 H _19_ $end
$var wire 1 I _18_ $end
$var wire 1 J _17_ $end
$var wire 1 K _16_ $end
$var wire 1 L _15_ $end
$var wire 1 M _14_ $end
$var wire 1 N _13_ $end
$var wire 1 O _12_ $end
$var wire 1 P _11_ $end
$var wire 1 Q _10_ $end
$var wire 1 R _09_ $end
$var wire 1 S _08_ $end
$var wire 1 T _07_ $end
$var wire 1 U _06_ $end
$var wire 1 V _05_ $end
$var wire 1 W _04_ $end
$var wire 1 X _03_ $end
$var wire 1 Y _02_ $end
$var wire 1 Z _01_ $end
$var wire 3 [ _00_ [2:0] $end
$scope module _42_ $end
$var wire 1 \ A $end
$var wire 1 Z Y $end
$var wire 1 # B $end
$upscope $end
$scope module _43_ $end
$var wire 1 Z A $end
$var wire 1 ] Y $end
$upscope $end
$scope module _44_ $end
$var wire 1 ^ A $end
$var wire 1 Y Y $end
$upscope $end
$scope module _45_ $end
$var wire 1 Y A $end
$var wire 1 _ Y $end
$var wire 1 # B $end
$upscope $end
$scope module _46_ $end
$var wire 1 ` A $end
$var wire 1 X Y $end
$upscope $end
$scope module _47_ $end
$var wire 1 X A $end
$var wire 1 a Y $end
$var wire 1 # B $end
$upscope $end
$scope module _48_ $end
$var wire 1 W Y $end
$var wire 1 # A $end
$upscope $end
$scope module _49_ $end
$var wire 1 b A $end
$var wire 1 V Y $end
$upscope $end
$scope module _50_ $end
$var wire 1 V A $end
$var wire 1 W B $end
$var wire 1 c Y $end
$upscope $end
$scope module _51_ $end
$var wire 1 d A $end
$var wire 1 U Y $end
$upscope $end
$scope module _52_ $end
$var wire 1 U A $end
$var wire 1 e Y $end
$var wire 1 # B $end
$upscope $end
$scope module _53_ $end
$var wire 1 f A $end
$var wire 1 T Y $end
$upscope $end
$scope module _54_ $end
$var wire 1 T A $end
$var wire 1 g Y $end
$var wire 1 # B $end
$upscope $end
$scope module _55_ $end
$var wire 1 h B $end
$var wire 1 S Y $end
$var wire 1 # A $end
$upscope $end
$scope module _56_ $end
$var wire 1 S A $end
$var wire 1 i Y $end
$upscope $end
$scope module _57_ $end
$var wire 1 j A $end
$var wire 1 R Y $end
$upscope $end
$scope module _58_ $end
$var wire 1 R A $end
$var wire 1 k Y $end
$var wire 1 # B $end
$upscope $end
$scope module _59_ $end
$var wire 1 l B $end
$var wire 1 m Y $end
$var wire 1 $ A $end
$upscope $end
$scope module _60_ $end
$var wire 1 n A $end
$var wire 1 o B $end
$var wire 1 Q Y $end
$upscope $end
$scope module _61_ $end
$var wire 1 Q A $end
$var wire 1 P Y $end
$upscope $end
$scope module _62_ $end
$var wire 1 O Y $end
$var wire 1 $ A $end
$upscope $end
$scope module _63_ $end
$var wire 1 p A $end
$var wire 1 N Y $end
$upscope $end
$scope module _64_ $end
$var wire 1 q A $end
$var wire 1 M Y $end
$upscope $end
$scope module _65_ $end
$var wire 1 M A $end
$var wire 1 N B $end
$var wire 1 L Y $end
$upscope $end
$scope module _66_ $end
$var wire 1 L A $end
$var wire 1 O B $end
$var wire 1 K Y $end
$upscope $end
$scope module _67_ $end
$var wire 1 K A $end
$var wire 1 P B $end
$var wire 1 r Y $end
$upscope $end
$scope module _68_ $end
$var wire 1 s A $end
$var wire 1 J Y $end
$upscope $end
$scope module _69_ $end
$var wire 1 Q A $end
$var wire 1 J B $end
$var wire 1 I Y $end
$upscope $end
$scope module _70_ $end
$var wire 1 Q A $end
$var wire 1 J B $end
$var wire 1 H Y $end
$upscope $end
$scope module _71_ $end
$var wire 1 H A $end
$var wire 1 O B $end
$var wire 1 G Y $end
$upscope $end
$scope module _72_ $end
$var wire 1 G A $end
$var wire 1 I B $end
$var wire 1 t Y $end
$upscope $end
$scope module _73_ $end
$var wire 1 u A $end
$var wire 1 v B $end
$var wire 1 F Y $end
$upscope $end
$scope module _74_ $end
$var wire 1 w A $end
$var wire 1 J B $end
$var wire 1 E Y $end
$upscope $end
$scope module _75_ $end
$var wire 1 E A $end
$var wire 1 F B $end
$var wire 1 D Y $end
$upscope $end
$scope module _76_ $end
$var wire 1 D A $end
$var wire 1 x B $end
$var wire 1 C Y $end
$upscope $end
$scope module _77_ $end
$var wire 1 y A $end
$var wire 1 z B $end
$var wire 1 B Y $end
$upscope $end
$scope module _78_ $end
$var wire 1 { A $end
$var wire 1 J B $end
$var wire 1 A Y $end
$upscope $end
$scope module _79_ $end
$var wire 1 A A $end
$var wire 1 B B $end
$var wire 1 @ Y $end
$upscope $end
$scope module _80_ $end
$var wire 1 @ A $end
$var wire 1 N B $end
$var wire 1 ? Y $end
$upscope $end
$scope module _81_ $end
$var wire 1 ? A $end
$var wire 1 C B $end
$var wire 1 > Y $end
$upscope $end
$scope module _82_ $end
$var wire 1 > A $end
$var wire 1 M B $end
$var wire 1 = Y $end
$upscope $end
$scope module _83_ $end
$var wire 1 | A $end
$var wire 1 J B $end
$var wire 1 < Y $end
$upscope $end
$scope module _84_ $end
$var wire 1 Z A $end
$var wire 1 J B $end
$var wire 1 ; Y $end
$upscope $end
$scope module _85_ $end
$var wire 1 ; A $end
$var wire 1 } B $end
$var wire 1 : Y $end
$upscope $end
$scope module _86_ $end
$var wire 1 : A $end
$var wire 1 < B $end
$var wire 1 9 Y $end
$upscope $end
$scope module _87_ $end
$var wire 1 ~ A $end
$var wire 1 J B $end
$var wire 1 8 Y $end
$upscope $end
$scope module _88_ $end
$var wire 1 S A $end
$var wire 1 J B $end
$var wire 1 7 Y $end
$upscope $end
$scope module _89_ $end
$var wire 1 7 A $end
$var wire 1 N B $end
$var wire 1 6 Y $end
$upscope $end
$scope module _90_ $end
$var wire 1 6 A $end
$var wire 1 8 B $end
$var wire 1 5 Y $end
$upscope $end
$scope module _91_ $end
$var wire 1 5 A $end
$var wire 1 9 B $end
$var wire 1 4 Y $end
$upscope $end
$scope module _92_ $end
$var wire 1 4 A $end
$var wire 1 M B $end
$var wire 1 3 Y $end
$upscope $end
$scope module _93_ $end
$var wire 1 3 A $end
$var wire 1 2 Y $end
$var wire 1 $ B $end
$upscope $end
$scope module _94_ $end
$var wire 1 2 A $end
$var wire 1 = B $end
$var wire 1 % Y $end
$upscope $end
$scope module _95_ $end
$var wire 1 !" D $end
$var wire 1 + C $end
$var reg 1 "" Q $end
$upscope $end
$scope module _96_ $end
$var wire 1 #" D $end
$var wire 1 + C $end
$var reg 1 $" Q $end
$upscope $end
$scope module _97_ $end
$var wire 1 %" D $end
$var wire 1 + C $end
$var reg 1 &" Q $end
$upscope $end
$upscope $end
$scope module probador_ $end
$var wire 8 '" data2send_c [7:0] $end
$var wire 8 (" data2send_e [7:0] $end
$var wire 1 & data_out_c $end
$var wire 1 % data_out_e $end
$var reg 1 + clk_8f $end
$var reg 1 * clk_f $end
$var reg 8 )" data_in [7:0] $end
$var reg 1 $ reset $end
$var reg 1 # valid_in $end
$upscope $end
$upscope $end
$scope module DFFSR $end
$var wire 1 *" C $end
$var wire 1 +" D $end
$var wire 1 ," R $end
$var wire 1 -" S $end
$var reg 1 ." Q $end
$upscope $end
$enddefinitions $end
#0
$dumpvars
x."
z-"
z,"
z+"
z*"
b0 )"
b10111100 ("
b10111100 '"
x&"
1%"
x$"
1#"
x""
1!"
1~
x}
1|
0{
xz
1y
xx
1w
xv
1u
1t
xs
1r
xq
xp
xo
xn
1m
xl
1k
0j
0i
0h
1g
0f
1e
0d
0c
0b
1a
0`
1_
0^
0]
0\
b111 [
1Z
1Y
1X
1W
1V
1U
1T
1S
1R
xQ
xP
1O
xN
xM
xL
0K
xJ
xI
xH
0G
xF
xE
xD
xC
0B
xA
x@
x?
x>
x=
0<
x;
x:
x9
08
x7
x6
x5
x4
x3
12
b10111100 1
b0 0
bx /
bx .
b10111100 -
b0 ,
0+
0*
b10111100 )
b10111100 (
b0 '
0&
0%
0$
0#
z"
z!
$end
#20
0=
04
1>
19
0C
05
0@
0:
1#"
1%"
1H
1D
1r
1t
1?
16
1L
13
1P
1I
1E
1A
1;
17
1%
0Q
0F
0K
0G
0!"
0N
0M
0J
02
b110 [
0m
0R
1}
1x
1p
1o
1l
1q
1n
1z
1v
1s
0O
1&
1j
1h
b111 .
1""
1$"
b111 /
1&"
1$
1*
b10001 '
b10001 ,
b10001 0
b10001 )"
1+
#40
0+
#60
0%
0#"
0r
1=
1K
15
09
0>
0L
06
1!"
1:
1C
b101 [
1m
1N
0}
0x
0p
0o
0l
0&
b110 /
0""
b110 .
1+
#80
0+
#100
05
1%
19
1>
16
0!"
0=
0:
0C
b100 [
0m
0N
1M
1&
1}
1x
1p
1o
1l
0q
0n
b101 .
1""
b101 /
0$"
1+
#120
0+
#140
0%"
0t
1#"
1G
15
1r
09
0>
0H
06
0P
1!"
1:
1C
1Q
b11 [
1m
1N
0}
0x
0p
0o
0l
b100 /
0""
b100 .
1+
#160
0+
#180
14
1#"
0%"
05
0K
1%
1r
0t
1@
09
1>
16
0!"
1L
0=
1P
1I
0E
0A
0;
07
1:
0C
b10 [
0m
0Q
1F
0N
0M
1J
1}
1x
1p
1o
1l
1q
1n
0z
0v
0s
b11 .
1""
1$"
b11 /
0&"
0*
1+
#200
0+
#220
0#"
0r
1K
0L
0?
1!"
1C
b1 [
1m
1N
0}
0x
0p
0o
0l
b10 /
0""
b10 .
1+
#240
0+
#260
0%
12
1?
0!"
03
0C
b0 [
0m
0N
1M
0&
1}
1x
1p
1o
1l
0q
0n
b1 .
1""
b1 /
0$"
1+
#280
0+
#300
1%"
1#"
1t
1r
0I
0?
0P
1!"
1C
1Q
b111 [
1m
1N
0}
0x
0p
0o
0l
b0 /
0""
b0 .
1+
#320
0+
#340
0=
1>
04
1%
19
1#"
0G
1%"
1D
0K
02
1r
1t
1@
0:
1H
1?
0!"
1L
13
1P
1I
1E
0A
0<
17
1{
1;
0C
b110 [
0m
0Q
0F
1i
1u
1w
1c
1y
1|
1]
0N
0M
0J
0S
1g
1e
1a
b11111111 (
b11111111 1
b11111111 ("
1_
0Z
0T
0U
0V
0X
0Y
1&
1}
1x
1p
1o
1l
1q
1n
1z
1v
1s
0W
1f
1d
1b
1`
1^
1\
b11111111 )
b11111111 -
b11111111 '"
b111 .
1""
1$"
b111 /
1&"
1*
1#
b11111111 '
b11111111 ,
b11111111 0
b11111111 )"
1+
#360
0+
#380
0#"
0r
1K
15
09
0L
0?
06
1!"
1:
1C
b101 [
1m
1N
0}
0x
0p
0o
0l
b110 /
0""
b110 .
1+
#400
0+
#420
05
19
1?
16
0!"
0:
0C
b100 [
0m
0N
1M
1}
1x
1p
1o
1l
0q
0n
b101 .
1""
b101 /
0$"
1+
#440
0+
#460
0%"
0t
1#"
1G
15
1r
09
0H
0?
06
0P
1!"
1:
1C
1Q
b11 [
1m
1N
0}
0x
0p
0o
0l
b100 /
0""
b100 .
1+
#480
0+
#500
1#"
0%"
05
0K
1r
0t
19
1?
16
0!"
1L
1P
1I
0E
0:
0C
b10 [
0m
0Q
1F
0N
0M
1J
1}
1x
1p
1o
1l
1q
1n
0z
0v
0s
b11 .
1""
1$"
b11 /
0&"
0*
1+
#520
0+
#540
0#"
0r
1K
15
09
0L
0?
06
1!"
1:
1C
b1 [
1m
1N
0}
0x
0p
0o
0l
b10 /
0""
b10 .
1+
#560
0+
#580
05
19
1?
16
0!"
0:
0C
b0 [
0m
0N
1M
1}
1x
1p
1o
1l
0q
0n
b1 .
1""
b1 /
0$"
1+
#600
0+
#620
1%"
1#"
1t
15
1r
09
0I
0?
06
0P
1!"
1:
1C
1Q
b111 [
1m
1N
0}
0x
0p
0o
0l
b0 /
0""
b0 .
1+
#640
0+
#660
1#"
0G
1%"
18
05
0K
1r
1t
19
1H
0~
1?
16
0!"
1L
1P
1I
1E
0k
b11101110 (
b11101110 1
b11101110 ("
0i
0:
0C
b110 [
0m
0Q
0F
1S
0N
0M
0J
1R
1}
1x
1p
1o
1l
1q
1n
1z
1v
1s
0j
0h
b11101110 )
b11101110 -
b11101110 '"
b111 .
1""
1$"
b111 /
1&"
1*
b11101110 '
b11101110 ,
b11101110 0
b11101110 )"
1+
#680
0+
#700
0#"
0r
14
1K
09
0L
0?
06
1!"
1:
1C
b101 [
1m
1N
0}
0x
0p
0o
0l
b110 /
0""
b110 .
1+
#720
0+
#740
1%
04
02
19
1?
16
0!"
13
0:
0C
b100 [
0m
0N
1M
1}
1x
1p
1o
1l
0q
0n
b101 .
1""
b101 /
0$"
1+
#760
0+
#780
0%
12
0%"
03
0t
14
1#"
1G
1r
09
0H
0?
06
0P
1!"
1:
1C
1Q
b11 [
1m
1N
0}
0x
0p
0o
0l
0&
b100 /
0""
b100 .
1+
#800
0+
#820
1%
04
1#"
0%"
0K
02
1r
0t
19
1?
16
0!"
1L
13
1P
1I
0E
08
07
0:
0C
b10 [
0m
0Q
1F
0N
0M
1J
1&
1}
1x
1p
1o
1l
1q
1n
0z
0v
0s
b11 .
1""
1$"
b11 /
0&"
0*
1+
#840
0+
#860
0#"
0r
14
1K
09
0L
0?
1!"
1:
1C
b1 [
1m
1N
0}
0x
0p
0o
0l
b10 /
0""
b10 .
1+
#880
0+
#900
1%
04
02
19
1?
0!"
13
0:
0C
b0 [
0m
0N
1M
1}
1x
1p
1o
1l
0q
0n
b1 .
1""
b1 /
0$"
1+
#920
0+
#940
0%
12
03
1%"
14
1#"
1t
1r
09
0I
0?
0P
1!"
1:
1C
1Q
b111 [
1m
1N
0}
0x
0p
0o
0l
0&
b0 /
0""
b0 .
1+
#960
0+
#980
1%
0@
04
1#"
0G
1%"
0K
02
1r
1t
1A
19
1H
1?
0!"
1L
13
1P
1I
1E
17
0{
0:
0C
b110 [
0m
0Q
0F
1~
0c
0]
0N
0M
0J
b10111100 (
b10111100 1
b10111100 ("
1k
1Z
1T
1Y
1&
1}
1x
1p
1o
1l
1q
1n
1z
1v
1s
1W
0f
0^
b10111100 )
b10111100 -
b10111100 '"
b111 .
1""
1$"
b111 /
1&"
1*
0#
b1001110 '
b1001110 ,
b1001110 0
b1001110 )"
1+
#1000
0+
#1020
0%
0#"
0r
1=
1K
15
09
0>
0L
06
1!"
1:
1C
b101 [
1m
1N
0}
0x
0p
0o
0l
0&
b110 /
0""
b110 .
1+
#1040
0+
#1060
05
1%
19
1>
16
0!"
0=
0:
0C
b100 [
0m
0N
1M
1&
1}
1x
1p
1o
1l
0q
0n
b101 .
1""
b101 /
0$"
1+
#1080
0+
#1100
0%"
0t
1#"
1G
15
1r
09
0>
0H
06
0P
1!"
1:
1C
1Q
b11 [
1m
1N
0}
0x
0p
0o
0l
b100 /
0""
b100 .
1+
#1120
0+
#1140
14
1#"
0%"
05
0K
1%
1r
0t
1@
09
1>
16
0!"
1L
0=
1P
1I
0E
0A
0;
07
1:
0C
b10 [
0m
0Q
1F
0N
0M
1J
1}
1x
1p
1o
1l
1q
1n
0z
0v
0s
b11 .
1""
1$"
b11 /
0&"
0*
1+
#1160
0+
#1180
0#"
0r
1K
0L
0?
1!"
1C
b1 [
1m
1N
0}
0x
0p
0o
0l
b10 /
0""
b10 .
1+
#1200
0+
#1220
0%
12
1?
0!"
03
0C
b0 [
0m
0N
1M
0&
1}
1x
1p
1o
1l
0q
0n
b1 .
1""
b1 /
0$"
1+
#1240
0+
#1260
1%"
1#"
1t
1r
0I
0?
0P
1!"
1C
1Q
b111 [
1m
1N
0}
0x
0p
0o
0l
b0 /
0""
b0 .
1+
#1280
0+
#1300
1=
0>
0%
1#"
0G
1%"
0D
0K
02
1r
1t
1@
0:
1H
0w
1?
0!"
1L
13
1P
1I
1E
0A
1<
1;
18
17
1{
0e
1C
b110 [
0m
0Q
1F
0~
0u
1c
0|
0N
0M
0J
0k
0g
b1000100 (
b1000100 1
b1000100 ("
0_
1U
1}
1x
1p
1o
1l
1q
1n
1z
1v
1s
0W
0d
0\
b1000100 )
b1000100 -
b1000100 '"
b111 .
1""
1$"
b111 /
1&"
1*
1#
b1000100 '
b1000100 ,
b1000100 0
b1000100 )"
1+
#1320
0+
#1340
1%
0#"
0r
0=
1K
1>
0L
0?
06
1!"
1:
b101 [
1m
1N
0}
0x
0p
0o
0l
1&
b110 /
0""
b110 .
1+
#1360
0+
#1380
0%
0>
12
1?
16
0!"
03
0:
b100 [
0m
0N
1M
0&
1}
1x
1p
1o
1l
0q
0n
b101 .
1""
b101 /
0$"
1+
#1400
0+
#1420
0%"
0t
1#"
1G
1>
1r
0H
0?
06
0P
1!"
1:
1Q
b11 [
1m
1N
0}
0x
0p
0o
0l
b100 /
0""
b100 .
1+
#1440
0+
#1460
1=
0%
14
1#"
0%"
0>
0K
02
1r
0t
09
1?
16
0!"
1L
13
1P
1I
0<
0;
08
07
1:
b10 [
0m
0Q
0N
0M
1J
1}
1x
1p
1o
1l
1q
1n
0z
0v
0s
b11 .
1""
1$"
b11 /
0&"
0*
1+
#1480
0+
#1500
1%
0#"
0r
0=
1K
1>
0L
0?
1!"
b1 [
1m
1N
0}
0x
0p
0o
0l
1&
b10 /
0""
b10 .
1+
#1520
0+
#1540
0%
0>
12
1?
0!"
03
b0 [
0m
0N
1M
0&
1}
1x
1p
1o
1l
0q
0n
b1 .
1""
b1 /
0$"
1+
#1560
0+
#1580
1%"
1#"
1t
1>
1r
0I
0?
0P
1!"
1Q
b111 [
1m
1N
0}
0x
0p
0o
0l
b0 /
0""
b0 .
1+
#1600
0+
#1620
1=
0%
1#"
0G
1%"
0>
0K
02
1r
1t
0:
1H
1?
0!"
1L
13
1P
1I
1<
1;
18
17
b110 [
0m
0Q
0N
0M
0J
1}
1x
1p
1o
1l
1q
1n
1z
1v
1s
b111 .
1""
1$"
b111 /
1&"
1+
#1640
0+
#1660
1%
0#"
0r
0=
1K
1>
0L
0?
06
1!"
1:
b101 [
1m
1N
0}
0x
0p
0o
0l
1&
b110 /
0""
b110 .
1+
#1680
0+
#1700
0%
0>
12
1?
16
0!"
03
0:
b100 [
0m
0N
1M
0&
1}
1x
1p
1o
1l
0q
0n
b101 .
1""
b101 /
0$"
1+
