PCIe/banco_pruebas.vcd
$date
	Wed May 29 13:50:51 2019
$end
$version
	Icarus Verilog
$end
$timescale
	100ps
$end
$scope module banco_pruebas $end
$var wire 1 ! valid_in_1_c $end
$var wire 1 " valid_in_0_c $end
$var wire 1 # resetCLK $end
$var wire 1 $ reset $end
$var wire 8 % data_in_1_c [7:0] $end
$var wire 8 & data_in_0_c [7:0] $end
$var wire 1 ' clk_8f_out $end
$var wire 1 ( clk_8f $end
$scope module PCIe_cond_instance $end
$var wire 1 ' clk_8f_out $end
$var wire 1 ! valid_in_1_c $end
$var wire 1 " valid_in_0_c $end
$var wire 1 # resetCLK $end
$var wire 1 $ reset $end
$var wire 8 ) data_in_1_c [7:0] $end
$var wire 8 * data_in_0_c [7:0] $end
$var wire 1 + clk_f $end
$var wire 1 ( clk_8f_in $end
$var wire 1 , clk_8f $end
$var wire 1 - clk_2f $end
$var wire 1 . Paral_serial_out_1_c $end
$var wire 1 / Paral_serial_out_0_c $end
$scope module Relojes $end
$var wire 1 , clk_8f $end
$var wire 1 # resetCLK $end
$var wire 1 ( clk_8f_in $end
$var reg 1 - clk_2f $end
$var reg 1 0 clk_4f $end
$var reg 1 + clk_f $end
$upscope $end
$scope module TX $end
$var wire 1 - clk_2f $end
$var wire 1 , clk_8f $end
$var wire 1 + clk_f $end
$var wire 1 1 reset0 $end
$var wire 1 2 valid_mux $end
$var wire 1 ! valid_in_1_c $end
$var wire 1 " valid_in_0_c $end
$var wire 1 3 valid_1_c_BS $end
$var wire 1 4 valid_0_c_BS $end
$var wire 1 $ reset $end
$var wire 8 5 lane_1_c [7:0] $end
$var wire 8 6 lane_0_c [7:0] $end
$var wire 8 7 data_out_c_mux [7:0] $end
$var wire 8 8 data_in_1_c [7:0] $end
$var wire 8 9 data_in_0_c [7:0] $end
$var wire 8 : data2send_c1 [7:0] $end
$var wire 8 ; data2send_c0 [7:0] $end
$var wire 1 . Paral_serial_out_1_c $end
$var wire 1 / Paral_serial_out_0_c $end
$var reg 8 < data_in_0_FF [7:0] $end
$var reg 8 = data_in_1_FF [7:0] $end
$var reg 1 > reset1 $end
$var reg 1 ? valid_in_0_FF $end
$var reg 1 @ valid_in_1_FF $end
$scope module Byte_striping_instance0 $end
$var wire 1 - clk_2f $end
$var wire 1 2 valid_in $end
$var wire 1 $ reset $end
$var wire 8 A data_in [7:0] $end
$var reg 8 B lane_0_c [7:0] $end
$var reg 8 C lane_1_c [7:0] $end
$var reg 1 D selector $end
$var reg 1 4 valid_0_c $end
$var reg 1 3 valid_1_c $end
$var reg 1 E valid_atrasado $end
$var reg 8 F y_0 [7:0] $end
$var reg 8 G y_1 [7:0] $end
$upscope $end
$scope module Paralelo_Serie_conductual_instance0 $end
$var wire 1 , clk_8f $end
$var wire 1 + clk_f $end
$var wire 8 H data_in [7:0] $end
$var wire 1 1 reset $end
$var wire 1 4 valid_in $end
$var reg 8 I data2send_c [7:0] $end
$var reg 1 / data_out_c $end
$var reg 3 J j [2:0] $end
$var reg 3 K k [2:0] $end
$upscope $end
$scope module Paralelo_Serie_conductual_instance1 $end
$var wire 1 , clk_8f $end
$var wire 1 + clk_f $end
$var wire 8 L data_in [7:0] $end
$var wire 1 > reset $end
$var wire 1 3 valid_in $end
$var reg 8 M data2send_c [7:0] $end
$var reg 1 . data_out_c $end
$var reg 3 N j [2:0] $end
$var reg 3 O k [2:0] $end
$upscope $end
$scope module mux_instance0 $end
$var wire 1 - clk_2f $end
$var wire 1 , clk_8f $end
$var wire 8 P data_in_0_c [7:0] $end
$var wire 8 Q data_in_1_c [7:0] $end
$var wire 1 ? valid_in_0_c $end
$var wire 1 @ valid_in_1_c $end
$var wire 1 $ reset $end
$var reg 8 R data_out_c [7:0] $end
$var reg 6 S nxt_st [5:0] $end
$var reg 1 T reset2 $end
$var reg 1 U resetm $end
$var reg 6 V st [5:0] $end
$var reg 1 2 valid_out_c $end
$upscope $end
$upscope $end
$upscope $end
$scope module probador_inst $end
$var wire 1 ' clk_8f $end
$var reg 1 ( clk_8f_prob $end
$var reg 8 W data_in_0_c [7:0] $end
$var reg 8 X data_in_1_c [7:0] $end
$var reg 1 $ reset $end
$var reg 1 # resetCLK $end
$var reg 1 " valid_in_0_c $end
$var reg 1 ! valid_in_1_c $end
$upscope $end
$upscope $end
$enddefinitions $end
#0
$dumpvars
b0 X
b0 W
bx V
0U
xT
bx S
b0 R
bx Q
bx P
b111 O
b111 N
b10111100 M
b0 L
b111 K
b111 J
b10111100 I
b0 H
bx G
bx F
xE
xD
b0 C
b0 B
b0 A
x@
x?
x>
bx =
bx <
b10111100 ;
b10111100 :
b0 9
b0 8
b0 7
b0 6
b0 5
04
03
02
01
00
0/
1.
0-
1,
0+
b0 *
b0 )
1(
1'
b0 &
b0 %
0$
1#
0"
0!
$end
#20
0'
0,
0(
#40
0.
b1 S
b1 V
0E
b0 G
b0 F
0D
0>
0@
0?
b0 =
b0 Q
b0 <
b0 P
0T
1+
1-
10
1'
1,
1(
#60
0'
0,
0(
#80
00
1'
1,
1(
#100
0'
0,
0(
#120
0-
10
1'
1,
1(
#140
0'
0,
0(
#160
00
1'
1,
1(
#180
0'
0,
0(
#200
0+
1-
10
1'
1,
1(
#220
0'
0,
0(
#240
00
1'
1,
1(
#260
0'
0,
0(
#280
0-
10
1'
1,
1(
#300
0'
0,
0(
#320
00
1'
1,
1(
#340
0'
0,
0(
#360
1.
1>
1/
b10 S
11
1$
1+
1-
10
1'
1,
1(
#380
0'
0,
0(
#400
0/
0.
1U
b110 J
b110 N
00
1'
1,
1(
#420
0'
0,
0(
#440
1.
1/
b101 N
b101 J
1T
0-
10
1'
1,
1(
#460
0'
0,
0(
#480
b100 J
b100 N
00
1'
1,
1(
#500
0'
0,
0(
#520
b10 V
b11 N
b11 J
0+
1-
10
1'
1,
1(
#540
0'
0,
0(
#560
b10 J
b10 N
00
1'
1,
1(
#580
0'
0,
0(
#600
0.
0/
b1 N
b1 J
0-
10
1'
1,
1(
#620
0'
0,
0(
#640
b0 J
b0 N
00
1'
1,
1(
#660
0'
0,
0(
#680
1.
1/
b111 N
b111 J
1+
1-
10
1'
1,
1(
#700
0'
0,
0(
#720
0/
0.
b110 J
b110 N
00
1'
1,
1(
#740
0'
0,
0(
#760
1.
1/
b101 N
b101 J
0-
10
1'
1,
1(
#780
0'
0,
0(
#800
b100 J
b100 N
00
1'
1,
1(
#820
0'
0,
0(
#840
b110010 =
b110010 Q
b10100100 <
b10100100 P
b11 N
b11 J
b110010 %
b110010 )
b110010 8
b110010 X
b10100100 &
b10100100 *
b10100100 9
b10100100 W
0+
1-
10
1'
1,
1(
#860
0'
0,
0(
#880
b10 J
b10 N
00
1'
1,
1(
#900
0'
0,
0(
#920
0.
0/
b1 N
b1 J
0-
10
1'
1,
1(
#940
0'
0,
0(
#960
b0 J
b0 N
00
1'
1,
1(
#980
0'
0,
0(
#1000
1.
1/
b111 N
b111 J
1+
1-
10
1'
1,
1(
#1020
0'
0,
0(
#1040
0/
0.
b110 J
b110 N
00
1'
1,
1(
#1060
0'
0,
0(
#1080
1.
1/
b101 N
b101 J
0-
10
1'
1,
1(
#1100
0'
0,
0(
#1120
b100 J
b100 N
00
1'
1,
1(
#1140
0'
0,
0(
#1160
b11 N
b11 J
0+
1-
10
1'
1,
1(
#1180
0'
0,
0(
#1200
b10 J
b10 N
00
1'
1,
1(
#1220
0'
0,
0(
#1240
0.
0/
b1 N
b1 J
0-
10
1'
1,
1(
#1260
0'
0,
0(
#1280
b0 J
b0 N
00
1'
1,
1(
#1300
0'
0,
0(
#1320
1.
1/
b111 N
b111 J
1+
1-
10
1'
1,
1(
#1340
0'
0,
0(
#1360
0/
0.
b110 J
b110 N
00
1'
1,
1(
#1380
0'
0,
0(
#1400
1.
1/
b101 N
b101 J
0-
10
1'
1,
1(
#1420
0'
0,
0(
#1440
b100 J
b100 N
00
1'
1,
1(
#1460
0'
0,
0(
#1480
b11111111 ;
b11111111 I
b11111111 6
b11111111 B
b11111111 H
14
b100 S
12
b11111111 7
b11111111 A
b11111111 R
1?
b11111111 <
b11111111 P
b11 N
b11 J
1"
b11111111 &
b11111111 *
b11111111 9
b11111111 W
0+
1-
10
1'
1,
1(
#1500
0'
0,
0(
#1520
b10 J
b110 K
b10 N
00
1'
1,
1(
#1540
0'
0,
0(
#1560
0.
b1 N
b101 K
b1 J
0-
10
1'
1,
1(
#1580
0'
0,
0(
#1600
b0 J
b100 K
b0 N
00
1'
1,
1(
#1620
0'
0,
0(
#1640
b11101110 :
b11101110 M
b11101110 5
b11101110 C
b11101110 L
13
14
b11111111 6
b11111111 B
b11111111 H
12
b11101110 7
b11101110 A
b11101110 R
b100 V
b11111111 F
1E
1D
1@
b0 =
b0 Q
b11101110 <
b11101110 P
1.
b111 N
b11 K
b111 J
1!
b0 %
b0 )
b0 8
b0 X
b11101110 &
b11101110 *
b11101110 9
b11101110 W
1+
1-
10
1'
1,
1(
#1660
0'
0,
0(
#1680
b110 J
b10 K
b110 N
b110 O
00
1'
1,
1(
#1700
0'
0,
0(
#1720
b101 O
b101 N
b1 K
b101 J
0-
10
1'
1,
1(
#1740
0'
0,
0(
#1760
0.
b100 J
b0 K
b100 N
b100 O
00
1'
1,
1(
#1780
0'
0,
0(
#1800
b11011101 ;
b11011101 I
12
b11011101 7
b11011101 A
b11011101 R
13
14
b11101110 5
b11101110 C
b11101110 L
b11011101 6
b11011101 B
b11011101 H
b1 =
b1 Q
b11011101 <
b11011101 P
0D
b11101110 G
1.
b11 O
b11 N
b111 K
b11 J
b1 %
b1 )
b1 8
b1 X
b11011101 &
b11011101 *
b11011101 9
b11011101 W
0+
1-
10
1'
1,
1(
#1820
0'
0,
0(
#1840
b10 J
b110 K
b10 N
b10 O
00
1'
1,
1(
#1860
0'
0,
0(
#1880
0/
b1 O
b1 N
b101 K
b1 J
0-
10
1'
1,
1(
#1900
0'
0,
0(
#1920
1/
0.
b0 J
b100 K
b0 N
b0 O
00
1'
1,
1(
#1940
0'
0,
0(
#1960
b11001100 :
b11001100 M
13
14
b11001100 5
b11001100 C
b11001100 L
b11011101 6
b11011101 B
b11011101 H
12
b11001100 7
b11001100 A
b11001100 R
b11011101 F
1D
b10 =
b10 Q
b11001100 <
b11001100 P
1.
b111 O
b111 N
b11 K
b111 J
b10 %
b10 )
b10 8
b10 X
b11001100 &
b11001100 *
b11001100 9
b11001100 W
1+
1-
10
1'
1,
1(
#1980
0'
0,
0(
#2000
b110 J
b10 K
b110 N
b110 O
00
1'
1,
1(
#2020
0'
0,
0(
#2040
0.
0/
b101 O
b101 N
b1 K
b101 J
0-
10
1'
1,
1(
#2060
0'
0,
0(
#2080
1/
b100 J
b0 K
b100 N
b100 O
00
1'
1,
1(
#2100
0'
0,
0(
#2120
b10111100 ;
b10111100 I
b100000 S
02
b0 7
b0 A
b0 R
13
04
b11001100 5
b11001100 C
b11001100 L
b11011101 6
b11011101 B
b11011101 H
0@
0?
0D
b11001100 G
1.
b11 O
b11 N
b111 K
b11 J
0!
0"
0+
1-
10
1'
1,
1(
#2140
0'
0,
0(
#2160
b10 J
b10 N
b10 O
00
1'
1,
1(
#2180
0'
0,
0(
#2200
0.
0/
b1 O
b1 N
b1 J
0-
10
1'
1,
1(
#2220
0'
0,
0(
#2240
b0 J
b0 N
b0 O
00
1'
1,
1(
#2260
0'
0,
0(
#2280
b10111100 :
b10111100 M
03
b11001100 5
b11001100 C
b11001100 L
b11011101 6
b11011101 B
b11011101 H
b100000 V
0E
1.
1/
b111 O
b111 N
b111 J
1+
1-
10
1'
1,
1(
#2300
0'
0,
0(
#2320
0/
0.
b110 J
b110 N
00
1'
1,
1(
#2340
0'
0,
0(
#2360
1.
1/
b101 N
b101 J
0-
10
1'
1,
1(
#2380
0'
0,
0(
#2400
b100 J
b100 N
00
1'
1,
1(
#2420
0'
0,
0(
#2440
b11 =
b11 Q
b11 N
b11 J
b11 %
b11 )
b11 8
b11 X
0+
1-
10
1'
1,
1(
#2460
0'
0,
0(
#2480
b10 J
b10 N
00
1'
1,
1(
#2500
0'
0,
0(
#2520
0.
0/
b1 N
b1 J
0-
10
1'
1,
1(
#2540
0'
0,
0(
#2560
b0 J
b0 N
00
1'
1,
1(
#2580
0'
0,
0(
#2600
b10111011 ;
b10111011 I
14
b11001100 5
b11001100 C
b11001100 L
b10111011 6
b10111011 B
b10111011 H
b100 S
12
b10111011 7
b10111011 A
b10111011 R
1?
b100 =
b100 Q
b10111011 <
b10111011 P
1.
1/
b111 N
b111 J
b100 %
b100 )
b100 8
b100 X
b10111011 &
b10111011 *
b10111011 9
b10111011 W
1"
1+
1-
10
1'
1,
1(
#2620
0'
0,
0(
#2640
0/
0.
b110 J
b110 K
b110 N
00
1'
1,
1(
#2660
0'
0,
0(
#2680
1.
1/
b101 N
b101 K
b101 J
0-
10
1'
1,
1(
#2700
0'
0,
0(
#2720
b100 J
b100 K
b100 N
00
1'
1,
1(
#2740
0'
0,
0(
#2760
03
14
b11001100 5
b11001100 C
b11001100 L
b10111011 6
b10111011 B
b10111011 H
b100000 S
02
b0 7
b0 A
b0 R
0?
1D
b10111011 F
1E
b100 V
b11 N
b11 K
b11 J
0"
0+
1-
10
1'
1,
1(
#2780
0'
0,
0(
#2800
0/
b10 J
b10 K
b10 N
00
1'
1,
1(
#2820
0'
0,
0(
#2840
0.
1/
b1 N
b1 K
b1 J
0-
10
1'
1,
1(
#2860
0'
0,
0(
#2880
b0 J
b0 K
b0 N
00
1'
1,
1(
#2900
0'
0,
0(
#2920
b10111100 ;
b10111100 I
04
b11001100 5
b11001100 C
b11001100 L
b10111011 6
b10111011 B
b10111011 H
b100000 V
0E
0D
1.
b111 N
b111 K
b111 J
1+
1-
10
1'
1,
1(
#2940
0'
0,
0(
#2960
0/
0.
b110 J
b110 N
00
1'
1,
1(
#2980
0'
0,
0(
#3000
1.
1/
b101 N
b101 J
0-
10
1'
1,
1(
#3020
0'
0,
0(
#3040
b100 J
b100 N
00
1'
1,
1(
#3060
0'
0,
0(
#3080
0/
b101 ;
b101 I
14
b11001100 5
b11001100 C
b11001100 L
b101 6
b101 B
b101 H
b1000 S
12
b101 7
b101 A
b101 R
1@
1?
b101 =
b101 Q
b10101010 <
b10101010 P
b11 N
b11 J
b101 %
b101 )
b101 8
b101 X
b10101010 &
b10101010 *
b10101010 9
b10101010 W
1!
1"
0+
1-
10
1'
1,
1(
#3100
0'
0,
0(
#3120
b10 J
b110 K
b10 N
00
1'
1,
1(
#3140
0'
0,
0(
#3160
0.
b1 N
b101 K
b1 J
0-
10
1'
1,
1(
#3180
0'
0,
0(
#3200
b0 J
b100 K
b0 N
00
1'
1,
1(
#3220
0'
0,
0(
#3240
b110 :
b110 M
13
14
b110 5
b110 C
b110 L
b101 6
b101 B
b101 H
12
b110 7
b110 A
b110 R
b1000 V
b101 F
1E
1D
b110 =
b110 Q
b10011001 <
b10011001 P
0.
b111 N
b11 K
b111 J
b110 %
b110 )
b110 8
b110 X
b10011001 &
b10011001 *
b10011001 9
b10011001 W
1+
1-
10
1'
1,
1(
#3260
0'
0,
0(
#3280
1/
b110 J
b10 K
b110 N
b110 O
00
1'
1,
1(
#3300
0'
0,
0(
#3320
0/
b101 O
b101 N
b1 K
b101 J
0-
10
1'
1,
1(
#3340
0'
0,
0(
#3360
1/
b100 J
b0 K
b100 N
b100 O
00
1'
1,
1(
#3380
0'
0,
0(
#3400
b10111100 ;
b10111100 I
b10000 S
02
b0 7
b0 A
b0 R
13
04
b110 5
b110 C
b110 L
b101 6
b101 B
b101 H
0@
0?
0D
b110 G
1/
b11 O
b11 N
b111 K
b11 J
0!
0"
0+
1-
10
1'
1,
1(
#3420
0'
0,
0(
#3440
1.
b10 J
b10 N
b10 O
00
1'
1,
1(
#3460
0'
0,
0(
#3480
0/
b1 O
b1 N
b1 J
0-
10
1'
1,
1(
#3500
0'
0,
0(
#3520
0.
b0 J
b0 N
b0 O
00
1'
1,
1(
#3540
0'
0,
0(
#3560
1.
b10111100 :
b10111100 M
03
b110 5
b110 C
b110 L
b101 6
b101 B
b101 H
b10000 V
0E
1/
b111 O
b111 N
b111 J
1+
1-
10
1'
1,
1(
#3580
0'
0,
0(
#3600
0/
0.
b110 J
b110 N
00
1'
1,
1(
#3620
0'
0,
0(
#3640
1.
1/
b101 N
b101 J
0-
10
1'
1,
1(
#3660
0'
0,
0(
#3680
b100 J
b100 N
00
1'
1,
1(
#3700
0'
0,
0(
#3720
b10001000 ;
b10001000 I
14
b110 5
b110 C
b110 L
b10001000 6
b10001000 B
b10001000 H
b100 S
12
b10001000 7
b10001000 A
b10001000 R
1@
1?
b111 =
b111 Q
b10001000 <
b10001000 P
b11 N
b11 J
b111 %
b111 )
b111 8
b111 X
b10001000 &
b10001000 *
b10001000 9
b10001000 W
1!
1"
0+
1-
10
1'
1,
1(
#3740
0'
0,
0(
#3760
0/
b10 J
b110 K
b10 N
00
1'
1,
1(
#3780
0'
0,
0(
#3800
0.
b1 N
b101 K
b1 J
0-
10
1'
1,
1(
#3820
0'
0,
0(
#3840
b0 J
b100 K
b0 N
00
1'
1,
1(
#3860
0'
0,
0(
#3880
b1110111 :
b1110111 M
13
14
b1110111 5
b1110111 C
b1110111 L
b10001000 6
b10001000 B
b10001000 H
12
b1110111 7
b1110111 A
b1110111 R
b100 V
b10001000 F
1E
1D
b1000 =
b1000 Q
b1110111 <
b1110111 P
0.
1/
b111 N
b11 K
b111 J
b1000 %
b1000 )
b1000 8
b1000 X
b1110111 &
b1110111 *
b1110111 9
b1110111 W
1+
1-
10
1'
1,
1(
#3900
0'
0,
0(
#3920
0/
1.
b110 J
b10 K
b110 N
b110 O
00
1'
1,
1(
#3940
0'
0,
0(
#3960
b101 O
b101 N
b1 K
b101 J
0-
10
1'
1,
1(
#3980
0'
0,
0(
#4000
b100 J
b0 K
b100 N
b100 O
00
1'
1,
1(
#4020
0'
0,
0(
#4040
b110010 ;
b110010 I
12
b110010 7
b110010 A
b110010 R
13
14
b1110111 5
b1110111 C
b1110111 L
b110010 6
b110010 B
b110010 H
b10110 =
b10110 Q
b110010 <
b110010 P
0D
b1110111 G
0.
0/
b11 O
b11 N
b111 K
b11 J
b10110 %
b10110 )
b10110 8
b10110 X
b110010 &
b110010 *
b110010 9
b110010 W
0+
1-
10
1'
1,
1(
#4060
0'
0,
0(
#4080
1.
b10 J
b110 K
b10 N
b10 O
00
1'
1,
1(
#4100
0'
0,
0(
#4120
1/
b1 O
b1 N
b101 K
b1 J
0-
10
1'
1,
1(
#4140
0'
0,
0(
#4160
b0 J
b100 K
b0 N
b0 O
00
1'
1,
1(
#4180
0'
0,
0(
#4200
b10111100 :
b10111100 M
03
14
b1110111 5
b1110111 C
b1110111 L
b110010 6
b110010 B
b110010 H
b100000 S
02
b0 7
b0 A
b0 R
b110010 F
1D
0@
0?
1.
0/
b111 O
b111 N
b11 K
b111 J
0!
0"
1+
1-
10
1'
1,
1(
#4220
0'
0,
0(
#4240
0.
b110 J
b10 K
b110 N
00
1'
1,
1(
#4260
0'
0,
0(
#4280
1.
1/
b101 N
b1 K
b101 J
0-
10
1'
1,
1(
#4300
0'
0,
0(
#4320
0/
b100 J
b0 K
b100 N
00
1'
1,
1(
#4340
0'
0,
0(
#4360
1/
b10111100 ;
b10111100 I
04
b1110111 5
b1110111 C
b1110111 L
b110010 6
b110010 B
b110010 H
0D
0E
b100000 V
b11 N
b111 K
b11 J
0+
1-
10
1'
1,
1(
#4380
0'
0,
0(
#4400
b10 J
b10 N
00
1'
1,
1(
#4420
0'
0,
0(
#4440
0.
0/
b1 N
b1 J
0-
10
1'
1,
1(
#4460
0'
0,
0(
#4480
b0 J
b0 N
00
1'
1,
1(
#4500
0'
0,
0(
#4520
1.
1/
b111 N
b111 J
1+
1-
10
1'
1,
1(
#4540
0'
0,
0(
#4560
0/
0.
b110 J
b110 N
00
1'
1,
1(
#4580
0'
0,
0(
#4600
1.
1/
b101 N
b101 J
0-
10
1'
1,
1(
#4620
0'
0,
0(
#4640
b100 J
b100 N
00
1'
1,
1(
#4660
0'
0,
0(
#4680
b11 N
b11 J
0+
1-
10
1'
1,
1(
#4700
0'
0,
0(
#4720
b10 J
b10 N
00
1'
1,
1(
#4740
0'
0,
0(
#4760
0.
0/
b1 N
b1 J
0-
10
1'
1,
1(
#4780
0'
0,
0(
#4800
b0 J
b0 N
00
1'
1,
1(
#4820
0'
0,
0(
#4840
1.
1/
b111 N
b111 J
1+
1-
10
1'
1,
1(
