Serie_Paralelo/S_P.vcd
$date
	Wed May 22 19:00:34 2019
$end
$version
	Icarus Verilog
$end
$timescale
	100ps
$end
$scope module BUF $end
$var wire 1 ! A $end
$var wire 1 " Y $end
$upscope $end
$scope module BancoPruebas $end
$var wire 1 # valid_out_e $end
$var wire 1 $ valid_out_c $end
$var wire 1 % valid_in $end
$var wire 1 & reset $end
$var wire 8 ' parallel_out_e [7:0] $end
$var wire 8 ( parallel_out_c [7:0] $end
$var wire 1 ) data_out_c $end
$var wire 8 * data_in [7:0] $end
$var wire 8 + data2send_c [7:0] $end
$var wire 1 , clk_f $end
$var wire 1 - clk_8f $end
$scope module P_S_Cond $end
$var wire 1 % valid_in $end
$var wire 1 & reset $end
$var wire 8 . data_in [7:0] $end
$var wire 1 , clk_f $end
$var wire 1 - clk_8f $end
$var reg 8 / data2send_c [7:0] $end
$var reg 1 ) data_out_c $end
$var reg 3 0 j [2:0] $end
$upscope $end
$scope module S_P_Cond $end
$var wire 1 ) data_in $end
$var wire 1 & reset $end
$var wire 1 , clk_f $end
$var wire 1 - clk_8f $end
$var reg 3 1 BC_counter [2:0] $end
$var reg 8 2 Data_P [7:0] $end
$var reg 1 3 active $end
$var reg 3 4 bit_counter [2:0] $end
$var reg 8 5 parallel_out_c [7:0] $end
$var reg 1 $ valid_out_c $end
$upscope $end
$scope module S_P_synth $end
$var wire 1 ) data_in $end
$var wire 1 # valid_out_e $end
$var wire 1 & reset $end
$var wire 8 6 parallel_out_e [7:0] $end
$var wire 1 , clk_f $end
$var wire 1 - clk_8f $end
$var wire 3 7 bit_counter [2:0] $end
$var wire 1 8 active $end
$var wire 1 9 _088_ $end
$var wire 1 : _087_ $end
$var wire 1 ; _086_ $end
$var wire 1 < _085_ $end
$var wire 1 = _084_ $end
$var wire 1 > _083_ $end
$var wire 1 ? _082_ $end
$var wire 1 @ _081_ $end
$var wire 1 A _080_ $end
$var wire 1 B _079_ $end
$var wire 1 C _078_ $end
$var wire 1 D _077_ $end
$var wire 1 E _076_ $end
$var wire 1 F _075_ $end
$var wire 1 G _074_ $end
$var wire 1 H _073_ $end
$var wire 1 I _072_ $end
$var wire 1 J _071_ $end
$var wire 1 K _070_ $end
$var wire 1 L _069_ $end
$var wire 1 M _068_ $end
$var wire 1 N _067_ $end
$var wire 1 O _066_ $end
$var wire 1 P _065_ $end
$var wire 1 Q _064_ $end
$var wire 1 R _063_ $end
$var wire 1 S _062_ $end
$var wire 1 T _061_ $end
$var wire 1 U _060_ $end
$var wire 1 V _059_ $end
$var wire 1 W _058_ $end
$var wire 1 X _057_ $end
$var wire 1 Y _056_ $end
$var wire 1 Z _055_ $end
$var wire 1 [ _054_ $end
$var wire 1 \ _053_ $end
$var wire 1 ] _052_ $end
$var wire 1 ^ _051_ $end
$var wire 1 _ _050_ $end
$var wire 1 ` _049_ $end
$var wire 1 a _048_ $end
$var wire 1 b _047_ $end
$var wire 1 c _046_ $end
$var wire 1 d _045_ $end
$var wire 1 e _044_ $end
$var wire 1 f _043_ $end
$var wire 1 g _042_ $end
$var wire 1 h _041_ $end
$var wire 1 i _040_ $end
$var wire 1 j _039_ $end
$var wire 1 k _038_ $end
$var wire 1 l _037_ $end
$var wire 1 m _036_ $end
$var wire 1 n _035_ $end
$var wire 1 o _034_ $end
$var wire 1 p _033_ $end
$var wire 1 q _032_ $end
$var wire 1 r _031_ $end
$var wire 1 s _030_ $end
$var wire 1 t _029_ $end
$var wire 1 u _028_ $end
$var wire 1 v _027_ $end
$var wire 1 w _026_ $end
$var wire 1 x _025_ $end
$var wire 1 y _024_ $end
$var wire 1 z _023_ $end
$var wire 1 { _022_ $end
$var wire 1 | _021_ $end
$var wire 1 } _020_ $end
$var wire 1 ~ _019_ $end
$var wire 1 !" _018_ $end
$var wire 1 "" _017_ $end
$var wire 1 #" _016_ $end
$var wire 1 $" _015_ $end
$var wire 1 %" _014_ $end
$var wire 1 &" _013_ $end
$var wire 1 '" _012_ $end
$var wire 1 (" _011_ $end
$var wire 1 )" _010_ $end
$var wire 1 *" _009_ $end
$var wire 1 +" _008_ $end
$var wire 1 ," _007_ $end
$var wire 1 -" _006_ $end
$var wire 1 ." _005_ $end
$var wire 1 /" _004_ $end
$var wire 8 0" _003_ [7:0] $end
$var wire 3 1" _002_ [2:0] $end
$var wire 8 2" _001_ [7:0] $end
$var wire 3 3" _000_ [2:0] $end
$var wire 8 4" Data_P [7:0] $end
$var wire 3 5" BC_counter [2:0] $end
$scope module _089_ $end
$var wire 1 6" A $end
$var wire 1 7" B $end
$var wire 1 k Y $end
$upscope $end
$scope module _090_ $end
$var wire 1 k A $end
$var wire 1 8" B $end
$var wire 1 j Y $end
$upscope $end
$scope module _091_ $end
$var wire 1 j A $end
$var wire 1 8 Y $end
$upscope $end
$scope module _092_ $end
$var wire 1 9" A $end
$var wire 1 i Y $end
$upscope $end
$scope module _093_ $end
$var wire 1 :" A $end
$var wire 1 ;" B $end
$var wire 1 h Y $end
$upscope $end
$scope module _094_ $end
$var wire 1 h A $end
$var wire 1 i B $end
$var wire 1 g Y $end
$upscope $end
$scope module _095_ $end
$var wire 1 g A $end
$var wire 1 <" B $end
$var wire 1 f Y $end
$upscope $end
$scope module _096_ $end
$var wire 1 ) A $end
$var wire 1 e Y $end
$upscope $end
$scope module _097_ $end
$var wire 1 g A $end
$var wire 1 e B $end
$var wire 1 d Y $end
$upscope $end
$scope module _098_ $end
$var wire 1 d A $end
$var wire 1 c Y $end
$var wire 1 & B $end
$upscope $end
$scope module _099_ $end
$var wire 1 c A $end
$var wire 1 f B $end
$var wire 1 =" Y $end
$upscope $end
$scope module _100_ $end
$var wire 1 >" A $end
$var wire 1 b Y $end
$upscope $end
$scope module _101_ $end
$var wire 1 ?" A $end
$var wire 1 b B $end
$var wire 1 a Y $end
$upscope $end
$scope module _102_ $end
$var wire 1 a A $end
$var wire 1 i B $end
$var wire 1 ` Y $end
$upscope $end
$scope module _103_ $end
$var wire 1 ` A $end
$var wire 1 @" B $end
$var wire 1 _ Y $end
$upscope $end
$scope module _104_ $end
$var wire 1 ` A $end
$var wire 1 e B $end
$var wire 1 ^ Y $end
$upscope $end
$scope module _105_ $end
$var wire 1 ^ A $end
$var wire 1 ] Y $end
$var wire 1 & B $end
$upscope $end
$scope module _106_ $end
$var wire 1 ] A $end
$var wire 1 _ B $end
$var wire 1 A" Y $end
$upscope $end
$scope module _107_ $end
$var wire 1 B" A $end
$var wire 1 \ Y $end
$upscope $end
$scope module _108_ $end
$var wire 1 \ A $end
$var wire 1 C" B $end
$var wire 1 [ Y $end
$upscope $end
$scope module _109_ $end
$var wire 1 [ A $end
$var wire 1 i B $end
$var wire 1 Z Y $end
$upscope $end
$scope module _110_ $end
$var wire 1 Z A $end
$var wire 1 D" B $end
$var wire 1 Y Y $end
$upscope $end
$scope module _111_ $end
$var wire 1 Z A $end
$var wire 1 e B $end
$var wire 1 X Y $end
$upscope $end
$scope module _112_ $end
$var wire 1 X A $end
$var wire 1 W Y $end
$var wire 1 & B $end
$upscope $end
$scope module _113_ $end
$var wire 1 W A $end
$var wire 1 Y B $end
$var wire 1 E" Y $end
$upscope $end
$scope module _114_ $end
$var wire 1 F" A $end
$var wire 1 G" B $end
$var wire 1 V Y $end
$upscope $end
$scope module _115_ $end
$var wire 1 V A $end
$var wire 1 H" B $end
$var wire 1 U Y $end
$upscope $end
$scope module _116_ $end
$var wire 1 U A $end
$var wire 1 ) B $end
$var wire 1 T Y $end
$upscope $end
$scope module _117_ $end
$var wire 1 I" A $end
$var wire 1 S Y $end
$upscope $end
$scope module _118_ $end
$var wire 1 U A $end
$var wire 1 S B $end
$var wire 1 R Y $end
$upscope $end
$scope module _119_ $end
$var wire 1 R A $end
$var wire 1 Q Y $end
$var wire 1 & B $end
$upscope $end
$scope module _120_ $end
$var wire 1 Q A $end
$var wire 1 T B $end
$var wire 1 J" Y $end
$upscope $end
$scope module _121_ $end
$var wire 1 h A $end
$var wire 1 K" B $end
$var wire 1 P Y $end
$upscope $end
$scope module _122_ $end
$var wire 1 P A $end
$var wire 1 L" B $end
$var wire 1 O Y $end
$upscope $end
$scope module _123_ $end
$var wire 1 P A $end
$var wire 1 e B $end
$var wire 1 N Y $end
$upscope $end
$scope module _124_ $end
$var wire 1 N A $end
$var wire 1 M Y $end
$var wire 1 & B $end
$upscope $end
$scope module _125_ $end
$var wire 1 M A $end
$var wire 1 O B $end
$var wire 1 M" Y $end
$upscope $end
$scope module _126_ $end
$var wire 1 a A $end
$var wire 1 N" B $end
$var wire 1 L Y $end
$upscope $end
$scope module _127_ $end
$var wire 1 L A $end
$var wire 1 O" B $end
$var wire 1 K Y $end
$upscope $end
$scope module _128_ $end
$var wire 1 L A $end
$var wire 1 e B $end
$var wire 1 J Y $end
$upscope $end
$scope module _129_ $end
$var wire 1 J A $end
$var wire 1 I Y $end
$var wire 1 & B $end
$upscope $end
$scope module _130_ $end
$var wire 1 I A $end
$var wire 1 K B $end
$var wire 1 P" Y $end
$upscope $end
$scope module _131_ $end
$var wire 1 [ A $end
$var wire 1 Q" B $end
$var wire 1 H Y $end
$upscope $end
$scope module _132_ $end
$var wire 1 H A $end
$var wire 1 R" B $end
$var wire 1 G Y $end
$upscope $end
$scope module _133_ $end
$var wire 1 H A $end
$var wire 1 e B $end
$var wire 1 F Y $end
$upscope $end
$scope module _134_ $end
$var wire 1 F A $end
$var wire 1 E Y $end
$var wire 1 & B $end
$upscope $end
$scope module _135_ $end
$var wire 1 E A $end
$var wire 1 G B $end
$var wire 1 S" Y $end
$upscope $end
$scope module _136_ $end
$var wire 1 D Y $end
$var wire 1 & A $end
$upscope $end
$scope module _137_ $end
$var wire 1 V A $end
$var wire 1 i B $end
$var wire 1 C Y $end
$upscope $end
$scope module _138_ $end
$var wire 1 C A $end
$var wire 1 e B $end
$var wire 1 B Y $end
$upscope $end
$scope module _139_ $end
$var wire 1 T" A $end
$var wire 1 A Y $end
$upscope $end
$scope module _140_ $end
$var wire 1 C A $end
$var wire 1 @ Y $end
$upscope $end
$scope module _141_ $end
$var wire 1 @ A $end
$var wire 1 A B $end
$var wire 1 ? Y $end
$upscope $end
$scope module _142_ $end
$var wire 1 ? A $end
$var wire 1 B B $end
$var wire 1 > Y $end
$upscope $end
$scope module _143_ $end
$var wire 1 > A $end
$var wire 1 D B $end
$var wire 1 U" Y $end
$upscope $end
$scope module _144_ $end
$var wire 1 V" A $end
$var wire 1 = Y $end
$upscope $end
$scope module _145_ $end
$var wire 1 W" A $end
$var wire 1 < Y $end
$upscope $end
$scope module _146_ $end
$var wire 1 < A $end
$var wire 1 S B $end
$var wire 1 ; Y $end
$upscope $end
$scope module _147_ $end
$var wire 1 X" A $end
$var wire 1 : Y $end
$upscope $end
$scope module _148_ $end
$var wire 1 Y" A $end
$var wire 1 9 Y $end
$upscope $end
$scope module _149_ $end
$var wire 1 9 A $end
$var wire 1 : B $end
$var wire 1 /" Y $end
$upscope $end
$scope module _150_ $end
$var wire 1 /" A $end
$var wire 1 ; B $end
$var wire 1 ." Y $end
$upscope $end
$scope module _151_ $end
$var wire 1 Z" A $end
$var wire 1 [" B $end
$var wire 1 -" Y $end
$upscope $end
$scope module _152_ $end
$var wire 1 \" A $end
$var wire 1 ," Y $end
$upscope $end
$scope module _153_ $end
$var wire 1 ," A $end
$var wire 1 ]" B $end
$var wire 1 +" Y $end
$upscope $end
$scope module _154_ $end
$var wire 1 +" A $end
$var wire 1 -" B $end
$var wire 1 *" Y $end
$upscope $end
$scope module _155_ $end
$var wire 1 *" A $end
$var wire 1 ." B $end
$var wire 1 )" Y $end
$upscope $end
$scope module _156_ $end
$var wire 1 )" A $end
$var wire 1 @ B $end
$var wire 1 (" Y $end
$upscope $end
$scope module _157_ $end
$var wire 1 (" A $end
$var wire 1 = B $end
$var wire 1 '" Y $end
$upscope $end
$scope module _158_ $end
$var wire 1 (" A $end
$var wire 1 = B $end
$var wire 1 &" Y $end
$upscope $end
$scope module _159_ $end
$var wire 1 &" A $end
$var wire 1 %" Y $end
$var wire 1 & B $end
$upscope $end
$scope module _160_ $end
$var wire 1 %" A $end
$var wire 1 '" B $end
$var wire 1 ^" Y $end
$upscope $end
$scope module _161_ $end
$var wire 1 _" A $end
$var wire 1 $" Y $end
$upscope $end
$scope module _162_ $end
$var wire 1 `" A $end
$var wire 1 a" B $end
$var wire 1 #" Y $end
$upscope $end
$scope module _163_ $end
$var wire 1 b" A $end
$var wire 1 c" B $end
$var wire 1 "" Y $end
$upscope $end
$scope module _164_ $end
$var wire 1 "" A $end
$var wire 1 #" B $end
$var wire 1 !" Y $end
$upscope $end
$scope module _165_ $end
$var wire 1 d" A $end
$var wire 1 ~ Y $end
$upscope $end
$scope module _166_ $end
$var wire 1 ~ A $end
$var wire 1 A B $end
$var wire 1 } Y $end
$upscope $end
$scope module _167_ $end
$var wire 1 e" A $end
$var wire 1 | Y $end
$upscope $end
$scope module _168_ $end
$var wire 1 f" A $end
$var wire 1 | B $end
$var wire 1 { Y $end
$upscope $end
$scope module _169_ $end
$var wire 1 { A $end
$var wire 1 } B $end
$var wire 1 z Y $end
$upscope $end
$scope module _170_ $end
$var wire 1 z A $end
$var wire 1 !" B $end
$var wire 1 y Y $end
$upscope $end
$scope module _171_ $end
$var wire 1 y A $end
$var wire 1 C B $end
$var wire 1 x Y $end
$upscope $end
$scope module _172_ $end
$var wire 1 x A $end
$var wire 1 g" B $end
$var wire 1 w Y $end
$upscope $end
$scope module _173_ $end
$var wire 1 w A $end
$var wire 1 $" B $end
$var wire 1 v Y $end
$upscope $end
$scope module _174_ $end
$var wire 1 v A $end
$var wire 1 u Y $end
$var wire 1 & B $end
$upscope $end
$scope module _175_ $end
$var wire 1 w A $end
$var wire 1 $" B $end
$var wire 1 t Y $end
$upscope $end
$scope module _176_ $end
$var wire 1 t A $end
$var wire 1 u B $end
$var wire 1 h" Y $end
$upscope $end
$scope module _177_ $end
$var wire 1 i" A $end
$var wire 1 s Y $end
$upscope $end
$scope module _178_ $end
$var wire 1 t A $end
$var wire 1 s B $end
$var wire 1 r Y $end
$upscope $end
$scope module _179_ $end
$var wire 1 '" A $end
$var wire 1 j" B $end
$var wire 1 q Y $end
$upscope $end
$scope module _180_ $end
$var wire 1 q A $end
$var wire 1 k" B $end
$var wire 1 p Y $end
$upscope $end
$scope module _181_ $end
$var wire 1 p A $end
$var wire 1 r B $end
$var wire 1 o Y $end
$upscope $end
$scope module _182_ $end
$var wire 1 o A $end
$var wire 1 D B $end
$var wire 1 l" Y $end
$upscope $end
$scope module _183_ $end
$var wire 1 m" B $end
$var wire 1 n" Y $end
$var wire 1 & A $end
$upscope $end
$scope module _184_ $end
$var wire 1 V A $end
$var wire 1 D B $end
$var wire 1 n Y $end
$upscope $end
$scope module _185_ $end
$var wire 1 n A $end
$var wire 1 h B $end
$var wire 1 o" Y $end
$upscope $end
$scope module _186_ $end
$var wire 1 V A $end
$var wire 1 i B $end
$var wire 1 m Y $end
$upscope $end
$scope module _187_ $end
$var wire 1 m A $end
$var wire 1 D B $end
$var wire 1 l Y $end
$upscope $end
$scope module _188_ $end
$var wire 1 l A $end
$var wire 1 C B $end
$var wire 1 p" Y $end
$upscope $end
$scope module _189_ $end
$var wire 1 j A $end
$var wire 1 A B $end
$var wire 1 q" Y $end
$upscope $end
$scope module _190_ $end
$var wire 1 j A $end
$var wire 1 ~ B $end
$var wire 1 r" Y $end
$upscope $end
$scope module _191_ $end
$var wire 1 j A $end
$var wire 1 9 B $end
$var wire 1 s" Y $end
$upscope $end
$scope module _192_ $end
$var wire 1 j A $end
$var wire 1 < B $end
$var wire 1 t" Y $end
$upscope $end
$scope module _193_ $end
$var wire 1 j A $end
$var wire 1 S B $end
$var wire 1 u" Y $end
$upscope $end
$scope module _194_ $end
$var wire 1 j A $end
$var wire 1 : B $end
$var wire 1 v" Y $end
$upscope $end
$scope module _195_ $end
$var wire 1 j A $end
$var wire 1 | B $end
$var wire 1 w" Y $end
$upscope $end
$scope module _196_ $end
$var wire 1 j A $end
$var wire 1 ," B $end
$var wire 1 x" Y $end
$upscope $end
$scope module _197_ $end
$var wire 1 y" D $end
$var wire 1 - C $end
$var reg 1 z" Q $end
$upscope $end
$scope module _198_ $end
$var wire 1 {" D $end
$var wire 1 - C $end
$var reg 1 |" Q $end
$upscope $end
$scope module _199_ $end
$var wire 1 }" D $end
$var wire 1 - C $end
$var reg 1 ~" Q $end
$upscope $end
$scope module _200_ $end
$var wire 1 !# D $end
$var wire 1 - C $end
$var reg 1 "# Q $end
$upscope $end
$scope module _201_ $end
$var wire 1 ## D $end
$var wire 1 - C $end
$var reg 1 $# Q $end
$upscope $end
$scope module _202_ $end
$var wire 1 %# D $end
$var wire 1 - C $end
$var reg 1 &# Q $end
$upscope $end
$scope module _203_ $end
$var wire 1 '# D $end
$var wire 1 - C $end
$var reg 1 (# Q $end
$upscope $end
$scope module _204_ $end
$var wire 1 )# D $end
$var wire 1 - C $end
$var reg 1 *# Q $end
$upscope $end
$scope module _205_ $end
$var wire 1 +# D $end
$var wire 1 - C $end
$var reg 1 ,# Q $end
$upscope $end
$scope module _206_ $end
$var wire 1 -# D $end
$var wire 1 - C $end
$var reg 1 .# Q $end
$upscope $end
$scope module _207_ $end
$var wire 1 /# D $end
$var wire 1 - C $end
$var reg 1 0# Q $end
$upscope $end
$scope module _208_ $end
$var wire 1 1# D $end
$var wire 1 - C $end
$var reg 1 2# Q $end
$upscope $end
$scope module _209_ $end
$var wire 1 3# D $end
$var wire 1 - C $end
$var reg 1 4# Q $end
$upscope $end
$scope module _210_ $end
$var wire 1 5# D $end
$var wire 1 - C $end
$var reg 1 6# Q $end
$upscope $end
$scope module _211_ $end
$var wire 1 8 D $end
$var wire 1 , C $end
$var reg 1 # Q $end
$upscope $end
$scope module _212_ $end
$var wire 1 7# D $end
$var wire 1 , C $end
$var reg 1 8# Q $end
$upscope $end
$scope module _213_ $end
$var wire 1 9# D $end
$var wire 1 , C $end
$var reg 1 :# Q $end
$upscope $end
$scope module _214_ $end
$var wire 1 ;# D $end
$var wire 1 , C $end
$var reg 1 <# Q $end
$upscope $end
$scope module _215_ $end
$var wire 1 =# D $end
$var wire 1 , C $end
$var reg 1 ># Q $end
$upscope $end
$scope module _216_ $end
$var wire 1 ?# D $end
$var wire 1 , C $end
$var reg 1 @# Q $end
$upscope $end
$scope module _217_ $end
$var wire 1 A# D $end
$var wire 1 , C $end
$var reg 1 B# Q $end
$upscope $end
$scope module _218_ $end
$var wire 1 C# D $end
$var wire 1 , C $end
$var reg 1 D# Q $end
$upscope $end
$scope module _219_ $end
$var wire 1 E# D $end
$var wire 1 , C $end
$var reg 1 F# Q $end
$upscope $end
$upscope $end
$scope module probador_ $end
$var wire 8 G# data2send_c [7:0] $end
$var wire 1 ) data_out_c $end
$var reg 1 - clk_8f $end
$var reg 1 , clk_f $end
$var reg 8 H# data_in [7:0] $end
$var reg 1 & reset $end
$var reg 1 % valid_in $end
$upscope $end
$upscope $end
$scope module DFFSR $end
$var wire 1 I# C $end
$var wire 1 J# D $end
$var wire 1 K# R $end
$var wire 1 L# S $end
$var reg 1 M# Q $end
$upscope $end
$enddefinitions $end
#0
$dumpvars
xM#
zL#
zK#
zJ#
zI#
b0 H#
b10111100 G#
xF#
xE#
xD#
xC#
xB#
xA#
x@#
x?#
x>#
x=#
x<#
x;#
x:#
x9#
x8#
x7#
x6#
05#
x4#
03#
x2#
01#
x0#
1/#
x.#
1-#
x,#
1+#
x*#
0)#
x(#
0'#
x&#
0%#
x$#
0##
x"#
0!#
x~"
0}"
x|"
0{"
xz"
0y"
xx"
xw"
xv"
xu"
xt"
xs"
xr"
xq"
1p"
1o"
1n"
xm"
0l"
xk"
xj"
xi"
0h"
xg"
xf"
xe"
xd"
xc"
xb"
xa"
x`"
x_"
0^"
x]"
x\"
x["
xZ"
xY"
xX"
xW"
xV"
0U"
xT"
0S"
xR"
xQ"
0P"
xO"
xN"
0M"
xL"
xK"
0J"
xI"
xH"
xG"
xF"
0E"
xD"
xC"
xB"
0A"
x@"
x?"
x>"
0="
x<"
x;"
x:"
x9"
x8"
x7"
x6"
bx 5"
bx 4"
b0 3"
b0 2"
b111 1"
bx 0"
x/"
x."
x-"
x,"
x+"
x*"
x)"
x("
x'"
x&"
1%"
x$"
x#"
x""
x!"
x~
x}
x|
x{
xz
xy
xx
xw
xv
1u
xt
xs
xr
xq
xp
xo
0n
xm
0l
xk
xj
xi
xh
xg
xf
1e
xd
1c
xb
xa
x`
x_
x^
1]
x\
x[
xZ
xY
xX
1W
xV
xU
xT
xS
xR
1Q
xP
xO
xN
1M
xL
xK
xJ
1I
xH
xG
xF
1E
1D
xC
0B
xA
x@
x?
x>
x=
x<
x;
x:
x9
x8
bx 7
bx 6
bx 5
bx 4
x3
bx 2
bx 1
bx 0
b10111100 /
b0 .
0-
0,
b10111100 +
b0 *
0)
bx (
bx '
0&
0%
x$
x#
z"
z!
$end
#20
b0 (
b0 5
0$
0&"
1_
1>
0)"
1y
1Y
0R
0f
1("
1o
1."
0`
0x
1/#
07#
09#
0;#
0=#
0?#
0!"
0A#
0C#
1*"
0z
0E#
0Z
1U
1m
1g
1G
1K
1O
0@
0v
0p
03#
01#
1p"
0{"
0}"
0!#
0##
0%#
0'#
1)#
0?
0q"
0}
0r"
0s"
0t"
0;
0u"
0/"
0v"
0w"
b0 0"
0x"
1a
1C
0'"
0t
0r
08
0h"
0^"
0y"
05#
0S"
0P"
0M"
0J"
0E"
0A"
1="
1d
1^
1X
1N
1J
1F
0B
1-"
1#"
1""
0+"
1{
1[
0V
0h
0H
0L
0P
1w
1q
1k
1j
0+#
b10000000 2"
0U"
b0 3"
0l"
1n
0l
0T
1A
1~
19
1<
1S
1:
1|
1,"
0b
0\
0i
1=
1$"
1s
b110 1"
0n"
1u
1%"
0E
0I
0M
1Q
0W
0]
0c
0e
0["
0T"
0d"
0Z"
0R"
0b"
0Y"
0O"
0`"
0W"
0L"
0a"
0I"
0c"
0X"
0D"
0e"
0]"
0@"
0f"
0\"
0<"
1m"
1G"
1C"
1>"
1;"
1F"
1B"
1?"
1:"
1Q"
1N"
1K"
1H"
19"
0g"
0V"
07"
0j"
0_"
06"
0k"
0i"
08"
0D
1)
b111 0
0z"
0|"
0~"
0"#
0$#
0&#
0(#
b0 4"
0*#
1,#
1.#
b111 7
10#
02#
04#
b0 5"
06#
1&
1,
b10001 *
b10001 .
b10001 H#
03
b0 1
b0 2
b111 4
1-
#40
0-
#60
0'#
0A"
1]
1)#
0_
0^
b10000000 2"
1="
1`
0-#
0*"
0c
0g
0o"
1z
1+#
0a
1+"
1d
b101 1"
1n"
1h
0{
1b
0,"
1e
0m"
0G"
0C"
0>"
0;"
1f"
1\"
1<"
0)
b110 7
0,#
b10000000 4"
1*#
b110 4
b10000000 2
b110 0
1-
#80
0-
#100
1%#
b10100000 2"
1E"
0Y
1_
0]
1Z
0`
1^
0+#
b100 1"
0n"
0[
1a
0e
0b
1\
1)
1m"
1G"
1C"
1>"
1;"
0F"
0B"
0?"
0:"
b101 0
b101 4
1,#
b101 7
0.#
1-
#120
0-
#140
1##
b10110000 2"
1J"
0/#
0Q
0p"
1-#
1R
1o"
1l
0U
0n
0m
0Z
1+#
b11 1"
1n"
1V
1[
1b
0:
0m"
0G"
0C"
0>"
0;"
1c"
1X"
1D"
b100 7
0,#
b10100000 4"
1&#
b100 4
b10100000 2
b100 0
1-
#160
0-
#180
0y"
0}"
1!#
0U"
0P"
b10111000 2"
1M"
1>
1K
0O
0/#
0B
0p"
1n
0L
1P
0@
0+#
1C
b10 1"
0n"
0V
1a
0h
1U
0S
0b
0\
1i
1a"
1I"
1m"
1G"
1C"
1>"
1;"
1F"
1B"
1?"
1:"
0Q"
0N"
0K"
0H"
09"
b11 0
b11 4
b10110000 2
b10110000 4"
1$#
1,#
1.#
b11 7
00#
0,
1-
#200
0-
#220
1}"
b10111100 2"
1P"
0K
1L
0-#
0P
0o"
1+#
0a
1;
b1 1"
1n"
1h
0#"
1b
0<
0m"
0G"
0C"
0>"
0;"
1`"
1W"
1L"
b10 7
0,#
b10111000 4"
1"#
b10 4
b10111000 2
b10 0
1-
#240
0-
#260
0{"
1}"
0S"
1E
b10111100 2"
1P"
1)"
0y
0G
0F
0I
0."
1!"
1H
0L
1J
1/"
0+#
0""
b0 1"
0n"
0[
1a
1e
09
0b
1\
0)
1b"
1Y"
1O"
1m"
1G"
1C"
1>"
1;"
0F"
0B"
0?"
0:"
b1 0
b1 4
b10111100 2
b10111100 4"
1~"
1,#
b1 7
0.#
1-
#280
0-
#300
11#
b1 3"
1^"
0%"
1&"
0E
0("
1/#
1-#
1x
1p"
1o"
1G
1F
1@
0C
0n
0H
1+#
b111 1"
1n"
1V
1[
1b
0m"
0G"
0C"
0>"
0;"
b0 7
0,#
b0 4
b0 0
1-
#320
0-
#340
0F#
0D#
0B#
0@#
0>#
0<#
0:#
b0 '
b0 6
08#
0#
0'#
03#
0y"
0A"
0h"
b10111100 2"
0U"
0l
1_
1("
1/#
1u
11#
1>
0x
1p"
b1 3"
1^"
1n
1m
0`
1g
0@
0v
0B
0+#
1C
0'"
b110 1"
0n"
0V
1a
0h
1U
1w
0k
0e
0b
0\
0i
0=
1)
1m"
1G"
1C"
1>"
1;"
1F"
1B"
1?"
1:"
1Q"
1N"
1K"
1H"
19"
1g"
1V"
17"
b111 0
b1 1
b111 4
1,#
1.#
b111 7
10#
b1 5"
12#
1,
1-
#360
0-
#380
0'#
0A"
1]
1)#
0_
0^
b10111100 2"
1="
1`
0-#
0c
0g
0o"
1+#
0a
1d
b101 1"
1n"
1h
1b
1e
0m"
0G"
0C"
0>"
0;"
0)
b110 7
0,#
b110 4
b110 0
1-
#400
0-
#420
1_
0]
1Z
0`
1^
0+#
b100 1"
0n"
0[
1a
0e
0b
1\
1)
1m"
1G"
1C"
1>"
1;"
0F"
0B"
0?"
0:"
b101 0
b101 4
1,#
b101 7
0.#
1-
#440
0-
#460
0/#
0p"
1-#
1o"
1l
0U
0n
0m
0Z
1+#
b11 1"
1n"
1V
1[
1b
0m"
0G"
0C"
0>"
0;"
b100 7
0,#
b100 4
b100 0
1-
#480
0-
#500
03#
0h"
11#
1u
0y"
b1 3"
1^"
b10111100 2"
0U"
0v
0'"
1>
1w
1("
0/#
0B
0x
0p"
1n
0L
1P
0@
0+#
1C
b10 1"
0n"
0V
1a
0h
1U
0b
0\
1i
1m"
1G"
1C"
1>"
1;"
1F"
1B"
1?"
1:"
0Q"
0N"
0K"
0H"
09"
b11 0
b11 4
1,#
1.#
b11 7
00#
0,
1-
#520
0-
#540
1L
0-#
0P
0o"
1+#
0a
b1 1"
1n"
1h
1b
0m"
0G"
0C"
0>"
0;"
b10 7
0,#
b10 4
b10 0
1-
#560
0-
#580
0{"
1}"
0S"
1E
b10111100 2"
1P"
0G
0F
0I
1H
0L
1J
0+#
b0 1"
0n"
0[
1a
1e
0b
1\
0)
1m"
1G"
1C"
1>"
1;"
0F"
0B"
0?"
0:"
b1 0
b1 4
1,#
b1 7
0.#
1-
#600
0-
#620
13#
1h"
01#
0u
b10 3"
0^"
1v
1'"
0w
0E
0("
1/#
1-#
1x
1p"
1o"
1G
1F
1@
0C
0n
0H
1+#
b111 1"
1n"
1V
1[
1b
0m"
0G"
0C"
0>"
0;"
b0 7
0,#
b0 4
b0 0
1-
#640
0-
#660
1%"
0'#
05#
0y"
0A"
0&"
0l"
b10111100 2"
0U"
0l
1_
1("
1/#
01#
1o
13#
1>
0x
1p"
0^"
b10 3"
1h"
1n
1m
0`
1g
0@
0p
0B
0+#
1C
0'"
0t
b110 1"
0n"
0V
1a
0h
1U
1w
1q
0e
0b
0\
0i
1=
0$"
1)
1m"
1G"
1C"
1>"
1;"
1F"
1B"
1?"
1:"
1Q"
1N"
1K"
1H"
19"
0g"
0V"
07"
1j"
1_"
16"
b111 0
b10 1
b111 4
1,#
1.#
b111 7
10#
02#
b10 5"
14#
1,
1-
#680
0-
#700
0'#
0A"
1]
1)#
0_
0^
b10111100 2"
1="
1`
0-#
0c
0g
0o"
1+#
0a
1d
b101 1"
1n"
1h
1b
1e
0m"
0G"
0C"
0>"
0;"
0)
b110 7
0,#
b110 4
b110 0
1-
#720
0-
#740
1_
0]
1Z
0`
1^
0+#
b100 1"
0n"
0[
1a
0e
0b
1\
1)
1m"
1G"
1C"
1>"
1;"
0F"
0B"
0?"
0:"
b101 0
b101 4
1,#
b101 7
0.#
1-
#760
0-
#780
0/#
0p"
1-#
1o"
1l
0U
0n
0m
0Z
1+#
b11 1"
1n"
1V
1[
1b
0m"
0G"
0C"
0>"
0;"
b100 7
0,#
b100 4
b100 0
1-
#800
0-
#820
01#
b10 3"
0^"
0y"
1%"
b10111100 2"
0U"
0&"
1>
1("
0/#
0B
0x
0p"
1n
0L
1P
0@
0+#
1C
b10 1"
0n"
0V
1a
0h
1U
0b
0\
1i
1m"
1G"
1C"
1>"
1;"
1F"
1B"
1?"
1:"
0Q"
0N"
0K"
0H"
09"
b11 0
b11 4
1,#
1.#
b11 7
00#
0,
1-
#840
0-
#860
1L
0-#
0P
0o"
1+#
0a
b1 1"
1n"
1h
1b
0m"
0G"
0C"
0>"
0;"
b10 7
0,#
b10 4
b10 0
1-
#880
0-
#900
0{"
1}"
0S"
1E
b10111100 2"
1P"
0G
0F
0I
1H
0L
1J
0+#
b0 1"
0n"
0[
1a
1e
0b
1\
0)
1m"
1G"
1C"
1>"
1;"
0F"
0B"
0?"
0:"
b1 0
b1 4
1,#
b1 7
0.#
1-
#920
0-
